[ADENOSYL__45__HOMO__45__CYS, N__45__METHYL__45__HISTAMINE];100
[ADENOSYL__45__HOMO__45__CYS, _3__45__ACYLOXYACYL__45__GROUP__45__OF__45__BACTERIAL__45__TOXIN];100
[N__45__FORMYLMETHIONINE];100
[ADENOSYL__45__HOMO__45__CYS, __124__Primary__45__Alcohols__124__];100
[ADENOSYL__45__HOMO__45__CYS, __124__Acylcholines__124__];100
[ADENOSYL__45__HOMO__45__CYS, CIS__45__DELTA3__45__ENOYL__45__COA];100
[__124__S__45__2__45__Hydroxyacids1__124__, CPD__45__84];100
[ADENOSYL__45__HOMO__45__CYS, CPD__45__189];100
[ADENOSYL__45__HOMO__45__CYS, _2__45__KETO__45__GLUTARAMATE, __124__D__45__Galactose__124__];100
[ADENOSYL__45__HOMO__45__CYS, CPD__45__409];100
[ADENOSYL__45__HOMO__45__CYS, _10__45__FORMYL__45__THF];100
[ADENOSYL__45__HOMO__45__CYS, _2R__45__HYDROPEROXY__45__FATTY__45__ACIDS];100
[__124__D__45__Amino__45__Acids__124__, CPD__45__84];100
[ADENOSYL__45__HOMO__45__CYS, D__45__3__45__HYDROXYACYL__45__COA];100
