[PHOSPHATIDYLETHANOLAMINE__45__KDO2];25
[L__45__FUCOSE];13
[DIACETYLCHITOBIOSE__45__6__45__PHOSPHATE, __124__MDO__45__6__45__Glycerophospho__45__D__45__Glucoses__124__, CPD0__45__942];1
[__124__MDO__45__6__45__Glycerophospho__45__D__45__Glucoses__124__, __124__Carboxylic__45__esters__124__, L__45__1__45__GLYCERO__45__PHOSPHORYLCHOLINE];1
[DEOXYCYTIDINE];21
[DUDP, UDP__45__L__45__ARA4__45__FORMYL__45__N, C55__45__PP__45__GLCNAC__45__MANNACA__45__FUC4NAC];5
[DEOXYCYTIDINE, UDP__45__L__45__ARA4__45__FORMYL__45__N, C55__45__PP__45__GLCNAC__45__MANNACA__45__FUC4NAC];1
[N5__45__METHYLGLUTAMINE, N__45__6__45__ISOPENTYL__45__ADENOSINE__45__37__45__TRNA];21
[HEPTOSYL__45__KDO2__45__LIPID__45__IVA, __124__MDO__45__6__45__Glycerophospho__45__D__45__Glucoses__124__, UDP__45__OHMYR__45__ACETYLGLUCOSAMINE];1
[N__45__ACETYLSPERMIDINE];25
[GALACTITOL__45__1__45__PHOSPHATE];12
[__124__MDO__45__6__45__Glycerophospho__45__D__45__Glucoses__124__, L__45__1__45__GLYCERO__45__PHOSPHORYLCHOLINE, __124__Acyl__45__Phosphates__124__];1
[DIACETYLCHITOBIOSE__45__6__45__PHOSPHATE];20
[CPD__45__660];25
[DIHYDRO__45__NEO__45__PTERIN];4
[HEPTOSYL__45__KDO2__45__LIPID__45__IVA, __124__MDO__45__6__45__Glycerophospho__45__D__45__Glucoses__124__, __124__Acetic__45__Esters__124__];1
[GMP__45__LYSINE];1
[__124__2__44__3__45__diketo__45__l__45__gulonate__124__];3
[MALONYL__45__COA];25
[D__45__4__45__HYDROXY__45__2__45__KETO__45__GLUTARATE];25
[__124__Acetic__45__Esters__124__];19
[N__45__ACETYLNEURAMINATE];25
[L__45__ALLO__45__THREONINE];25
[UDP__45__L__45__ARA4__45__FORMYL__45__N, DCDP, C55__45__PP__45__GLCNAC__45__MANNACA__45__FUC4NAC];5
[D__45__CYSTEINE];25
[HEPTOSYL__45__KDO2__45__LIPID__45__IVA, __124__MDO__45__6__45__Glycerophospho__45__D__45__Glucoses__124__];2
[HEME_O, N5__45__METHYLGLUTAMINE];10
[GLC__45__6__45__P];2
[CDP, __124__MDO__45__6__45__Glycerophospho__45__D__45__Glucoses__124__];2
[DIACETYLCHITOBIOSE__45__6__45__PHOSPHATE, __124__MDO__45__6__45__Glycerophospho__45__D__45__Glucoses__124__];2
[_1__45__ETHYLADENINE];1
[D__45__SERINE];25
[HEPTOSYL__45__KDO2__45__LIPID__45__IVA, DIACETYLCHITOBIOSE__45__6__45__PHOSPHATE, __124__MDO__45__6__45__Glycerophospho__45__D__45__Glucoses__124__];1
[CPD__45__67];4
[ALLANTOIN];4
[__124__MDO__45__6__45__Glycerophospho__45__D__45__Glucoses__124__];6
[D__45__3__45__HYDROXYACYL__45__COA];25
[N__45__METHYLTRYPTOPHAN];25
[L__45__ASCORBATE__45__6__45__PHOSPHATE];3
[N5__45__METHYLGLUTAMINE, __124__Phospholipid__45__Olefinic__45__Fatty__45__Acids__124__];21
[ALLO__45__THR];25
[_1__45__AMINO__45__PROPAN__45__2__45__OL];20
[CPD0__45__1080];25
[CPD0__45__943, CPD0__45__942, C55__45__PP__45__GLCNAC__45__MANNACA__45__FUC4NAC];12
[D__45__GALACTONATE];25
[L__45__SELENOCYSTEINE];25
[N5__45__METHYLGLUTAMINE, PROTEIN__45__L__45__BETA__45__ISOASPARTATES];21
[UDP__45__L__45__ARA4__45__FORMYL__45__N, C55__45__PP__45__GLCNAC__45__MANNACA__45__FUC4NAC, DCMP];5
[GLYCOL];4
[_3__45__HYDROXYPHENYL__45__PROPIONATE];25
[__124__a__32__glycerophosphodiester__124__];8
[CPD__45__507];2
[N5__45__METHYLGLUTAMINE, HEME_D];10
[__124__MDO__45__6__45__Glycerophospho__45__D__45__Glucoses__124__, __124__Acetic__45__Esters__124__];2
[D__45__GALACTURONATE];25
[CPD0__45__1083];25
[UDP__45__OHMYR__45__ACETYLGLUCOSAMINE];19
[MANNITOL__45__1P];2
[GLUTAMATE__45__1__45__SEMIALDEHYDE, N5__45__METHYLGLUTAMINE];21
[OXIDIZED__45__GLUTATHIONE];25
[PHENYLETHYLAMINE];25
[N5__45__METHYLGLUTAMINE];4
[L__45__ALA__45__GAMMA__45__D__45__GLU__45__DAP];9
[HCL, S__45__24__45__DINITROPHENYLGLUTATHIONE];25
[__124__a__32__glycerophosphodiester__124__, __124__Acetic__45__Esters__124__];3
[CPD__45__1782];25
[CPD0__45__1063];25
[N5__45__METHYLGLUTAMINE, CPD__45__1301];14
[DIACETYLCHITOBIOSE__45__6__45__PHOSPHATE, CDP, __124__MDO__45__6__45__Glycerophospho__45__D__45__Glucoses__124__];1
[__124__6__45__Acetyl__45__Beta__45__D__45__Galactosides__124__];25
[L__45__LYXOSE];3
[__124__Beta__45__D__45__Glucuronides__124__];25
[GDP__45__D__45__GLUCOSE];3
[__124__MDO__45__6__45__Glycerophospho__45__D__45__Glucoses__124__, UDP__45__OHMYR__45__ACETYLGLUCOSAMINE];2
[RHAMNOSE];13
[__124__Aliphatic__45__N__45__Acetyl__45__Diamines__124__];25
[_3__45__PHENYLPROPIONATE];25
[D__45__GALACTARATE];25
[UDP__45__L__45__ARA4__45__FORMYL__45__N];10
[_3__45__SULFINOALANINE];25
[D__45__GLUCARATE];25
[LEU];25
[ADENOSINE_DIPHOSPHATE_RIBOSE];1
[D__45__SORBITOL__45__6__45__P];2
[__40__glucose__41__m, __40__glucose__41__n];2
[L__45__ARABINOSE];3
[D__45__ARABINOSE];16
[_2__45__AMINOMALONATE__45__SEMIALDEHYDE];25
[DIACETYL];25
[CDP, __124__MDO__45__6__45__Glycerophospho__45__D__45__Glucoses__124__, UDP__45__OHMYR__45__ACETYLGLUCOSAMINE];1
[CIS__45__DELTA3__45__ENOYL__45__COA];25
[_3__45__MERCAPTO__45__PYRUVATE, __124__Alkanesulfonates__124__];14
[DIACETYLCHITOBIOSE__45__6__45__PHOSPHATE, __124__a__32__glycerophosphodiester__124__];3
[ACETYLMALTOSE];25
[CPD__45__8527];3
[MELIBIOSE];2
[_23__45__DIHYDROXYBENZOYLSERINE__45__MULTIMERS];25
[__124__Alkanesulfonates__124__];1
[QUINATE];25
[TAURINE, _3__45__MERCAPTO__45__PYRUVATE];1
[CPD__45__644];25
[ETHANOL__45__AMINE];24
[L__45__ALA__45__D__45__GLU__45__MESOA2PM];25
[CDP, __124__MDO__45__6__45__Glycerophospho__45__D__45__Glucoses__124__, __124__Acetic__45__Esters__124__];1
[ALLOSE];2
[__124__a__32__glycerophosphodiester__124__, UDP__45__OHMYR__45__ACETYLGLUCOSAMINE];3
[TARTRATE];25
[UDP__45__MURNAC__45__TETRAPEPTIDE];25
[__124__N__45__Acetoxy__45__Arylamines__124__];25
[GLUTATHIONYLSPERMIDINE];25
[__124__MDO__45__6__45__Glycerophospho__45__D__45__Glucoses__124__, CPD0__45__942, UDP__45__OHMYR__45__ACETYLGLUCOSAMINE];1
[CPD__45__389];4
[LACTOSE];2
[__124__MDO__45__6__45__Glycerophospho__45__D__45__Glucoses__124__, CPD0__45__942];2
[_3__45__KETOBUTYRATE];6
[__124__MDO__45__6__45__Glycerophospho__45__D__45__Glucoses__124__, CPD0__45__942, __124__Acetic__45__Esters__124__];1
[ETOH];24
