"algorithm";"#comp";"#reac";"target_id";"target_name";"#ppn.comp";"#ppn.reac";"#ppn.sources";"#sol";"#rec";"time";"solutions"
"Papa Pitufo";1010;1164;"ARG";"L__45__arginine";733;20988;344;1;649;43550;"#1 {CARBAMOYL__45__P } "
"Papa Pitufo";1010;1164;"MET";"L__45__methionine";737;4802;344;63;467;14017,3333333333;"#1 {N__45__6__45__ISOPENTYL__45__ADENOSINE__45__37__45__TRNA } #2 {L__45__SELENOCYSTEINE } #3 {UDP__45__MURNAC__45__TETRAPEPTIDE } #4 {_3__45__SULFINOALANINE } #5 {__124__Ribonuc__45__tri__45__P__45__reductases__45__inactive__124__ } #6 {TYR } #7 {GLUTAMATE__45__1__45__SEMIALDEHYDE } #8 {CPD__45__12991, CPD__45__479 } #9 {_2__45__O__45__ALPHA__45__MANNOSYL__45__D__45__GLYCERATE } #10 {D__45__SERINE } #11 {D__45__CYSTEINE } #12 {CPD__45__1782 } #13 {N__45__ACETYLNEURAMINATE } #14 {CPD__45__660 } #15 {D__45__4__45__HYDROXY__45__2__45__KETO__45__GLUTARATE } #16 {D__45__GALACTONATE } #17 {_25__45__DIDEHYDRO__45__D__45__GLUCONATE } #18 {GLC__45__6__45__P } #19 {__124__Beta__45__D__45__Glucuronides__124__ } #20 {D__45__GALACTURONATE } #21 {CPD0__45__1083 } #22 {CPD__45__6761 } #23 {CPD__45__10797 } #24 {CPD__45__674 } #25 {_3__45__HYDROXYPHENYL__45__PROPIONATE } #26 {_3__45__PHENYLPROPIONATE } #27 {__124__NAcMur__45__Peptide__45__NAcGlc__45__Undecaprenols__124__ } #28 {CPD0__45__1080 } #29 {CPD0__45__1181 } #30 {N__45__METHYLTRYPTOPHAN } #31 {_2__45__AMINOMALONATE__45__SEMIALDEHYDE } #32 {L__45__RHAMNONATE } #33 {__124__L__45__rhamnose__124__ } #34 {L__45__FUCOSE } #35 {D__45__SEDOHEPTULOSE__45__7__45__P } #36 {D__45__ARABINOSE } #37 {__124__Glycerophosphodiesters__124__ } #38 {L__45__GLYCERALDEHYDE__45__3__45__PHOSPHATE } #39 {CPD__45__536 } #40 {DIACYLGLYCEROL__45__PYROPHOSPHATE } #41 {TARTRATE } #42 {GLYCOL } #43 {CPD__45__582 } #44 {CGMP } #45 {GDP__45__D__45__GLUCOSE } #46 {BETA__45__D__45__FRUCTOSE } #47 {ALLOSE } #48 {GMP__45__LYSINE__45__PHOSPHORAMIDATE } #49 {ITP } #50 {__124__Pyrimidine__45__Ribonucleosides__124__ } #51 {XANTHOSINE } #52 {CYTIDINE } #53 {CPD0__45__1110 } #54 {__124__Purine__45__Ribonucleosides__124__ } #55 {ADENOSINE_DIPHOSPHATE_RIBOSE } #56 {DEOXYNUCLEOTIDESM } #57 {NICOTINAMIDE_RIBOSE } #58 {CPD0__45__1699, COB__45__I__45__ALAMIN } #59 {CPD0__45__1699, COBINAMIDE } #60 {S__45__ALLANTOIN } #61 {__124__ETR__45__Quinones__124__ } #62 {D__45__GALACTARATE } #63 {CPD0__45__1090 } "
"Papa Pitufo";1010;1164;"GLY";"glycine";706;4353;344;88;352;11011;"#1 {CPD__45__644 } #2 {ALLO__45__THR } #3 {L__45__ALLO__45__THREONINE } #4 {D__45__SEDOHEPTULOSE__45__7__45__P } #5 {_2__45__AMINOMALONATE__45__SEMIALDEHYDE } #6 {_2__45__O__45__ALPHA__45__MANNOSYL__45__D__45__GLYCERATE } #7 {D__45__GALACTONATE } #8 {__124__Purine__45__Ribonucleosides__124__, CPD0__45__1147 } #9 {XANTHOSINE, CPD0__45__1147 } #10 {CPD0__45__1147, CYTIDINE } #11 {ADENOSINE_DIPHOSPHATE_RIBOSE, CPD0__45__1147 } #12 {CPD0__45__1147, DEOXYNUCLEOTIDESM } #13 {NICOTINAMIDE_RIBOSE, CPD0__45__1147 } #14 {CPD0__45__1147, __124__Pyrimidine__45__Ribonucleosides__124__ } #15 {CPD0__45__1147, CPD0__45__1110 } #16 {_25__45__DIDEHYDRO__45__D__45__GLUCONATE } #17 {GLC__45__6__45__P } #18 {__124__Beta__45__D__45__Glucuronides__124__ } #19 {D__45__GALACTURONATE } #20 {CPD0__45__1083 } #21 {DEOXY__45__D__45__RIBOSE__45__1__45__PHOSPHATE } #22 {BETA__45__D__45__FRUCTOSE } #23 {N__45__ACETYLNEURAMINATE } #24 {CPD0__45__1080 } #25 {GLUCOSAMINE } #26 {CHITOBIOSE } #27 {NACMUR } #28 {MANNITOL } #29 {SORBITOL } #30 {ALLOSE } #31 {GALACTITOL } #32 {TARTRATE } #33 {D__45__4__45__HYDROXY__45__2__45__KETO__45__GLUTARATE } #34 {CPD__45__381 } #35 {CPD0__45__889 } #36 {GLYCOL } #37 {D__45__ARABINOSE } #38 {CPD__45__582 } #39 {CGMP } #40 {GDP__45__D__45__GLUCOSE } #41 {GMP__45__LYSINE__45__PHOSPHORAMIDATE } #42 {ITP } #43 {DIMETHYLBENZIMIDAZOLE, COBINAMIDE } #44 {CPD0__45__1699, COB__45__I__45__ALAMIN } #45 {CPD0__45__1699, COBINAMIDE } #46 {CPD__45__397 } #47 {N__45__6__45__ISOPENTYL__45__ADENOSINE__45__37__45__TRNA } #48 {CPD__45__1302 } #49 {TYR } #50 {CPD__45__12991, CPD__45__479 } #51 {L__45__SELENOCYSTEINE } #52 {UDP__45__MURNAC__45__TETRAPEPTIDE } #53 {_3__45__SULFINOALANINE } #54 {GLUTAMATE__45__1__45__SEMIALDEHYDE } #55 {S__45__ALLANTOIN } #56 {D__45__SERINE } #57 {D__45__CYSTEINE } #58 {HYDROQUINONE__45__O__45__BETA__45__D__45__GLUCOPYRANOSIDE } #59 {CELLOBIOSE } #60 {CPD__45__1782 } #61 {ASCORBATE } #62 {CPD__45__660 } #63 {CPD__45__1142 } #64 {CPD__45__6761 } #65 {CPD__45__10797 } #66 {CPD__45__674 } #67 {_3__45__HYDROXYPHENYL__45__PROPIONATE } #68 {_3__45__PHENYLPROPIONATE } #69 {__124__NAcMur__45__Peptide__45__NAcGlc__45__Undecaprenols__124__ } #70 {CPD0__45__1181 } #71 {N__45__METHYLTRYPTOPHAN } #72 {L__45__RHAMNONATE } #73 {__124__L__45__rhamnose__124__ } #74 {L__45__FUCOSE } #75 {__124__Glycerophosphodiesters__124__ } #76 {L__45__GLYCERALDEHYDE__45__3__45__PHOSPHATE } #77 {CPD__45__536 } #78 {DIACYLGLYCEROL__45__PYROPHOSPHATE } #79 {__124__ETR__45__Quinones__124__ } #80 {_3__45__MERCAPTO__45__PYRUVATE, __124__Alkanesulfonates__124__ } #81 {_3__45__MERCAPTO__45__PYRUVATE, TAURINE } #82 {D__45__GALACTARATE } #83 {CPD0__45__1090 } #84 {MELIBIOSE } #85 {__124__Glucosylated__45__Glucose__45__Acceptors__124__ } #86 {ALLOLACTOSE } #87 {__124__Glycogens__124__ } #88 {D__45__GALACTONO__45__1__45__4__45__LACTONE } "
"Papa Pitufo";1010;1164;"GLN";"L__45__glutamine";719;3909;344;32;367;10633,3333333333;"#1 {CPD0__45__889 } #2 {CPD__45__381 } #3 {TARTRATE } #4 {D__45__4__45__HYDROXY__45__2__45__KETO__45__GLUTARATE } #5 {GLYCOL } #6 {D__45__SEDOHEPTULOSE__45__7__45__P } #7 {D__45__ARABINOSE } #8 {CPD__45__582 } #9 {CGMP } #10 {GDP__45__D__45__GLUCOSE } #11 {_2__45__O__45__ALPHA__45__MANNOSYL__45__D__45__GLYCERATE } #12 {GMP__45__LYSINE__45__PHOSPHORAMIDATE } #13 {ITP } #14 {__124__Purine__45__Ribonucleosides__124__ } #15 {XANTHOSINE } #16 {CYTIDINE } #17 {ADENOSINE_DIPHOSPHATE_RIBOSE } #18 {DEOXYNUCLEOTIDESM } #19 {NICOTINAMIDE_RIBOSE } #20 {__124__Pyrimidine__45__Ribonucleosides__124__ } #21 {CPD0__45__1110 } #22 {N__45__6__45__ISOPENTYL__45__ADENOSINE__45__37__45__TRNA } #23 {L__45__SELENOCYSTEINE } #24 {UDP__45__MURNAC__45__TETRAPEPTIDE } #25 {_3__45__SULFINOALANINE } #26 {_2__45__AMINOMALONATE__45__SEMIALDEHYDE, PROT__45__CYS } #27 {TYR } #28 {GLUTAMATE__45__1__45__SEMIALDEHYDE } #29 {CPD__45__397 } #30 {CPD__45__12991, CPD__45__479 } #31 {CPD__45__1302 } #32 {S__45__ALLANTOIN } "
"Papa Pitufo";1010;1164;"L__45__ASPARTATE";"L__45__aspartate";714;6930;344;92;430;10571;"#1 {TARTRATE } #2 {D__45__4__45__HYDROXY__45__2__45__KETO__45__GLUTARATE } #3 {CPD__45__381 } #4 {CPD0__45__889 } #5 {GLYCOL } #6 {D__45__SEDOHEPTULOSE__45__7__45__P } #7 {D__45__ARABINOSE } #8 {CPD__45__582 } #9 {CGMP } #10 {GDP__45__D__45__GLUCOSE } #11 {_2__45__O__45__ALPHA__45__MANNOSYL__45__D__45__GLYCERATE } #12 {GMP__45__LYSINE__45__PHOSPHORAMIDATE } #13 {ITP } #14 {__124__Purine__45__Ribonucleosides__124__ } #15 {XANTHOSINE } #16 {CYTIDINE } #17 {ADENOSINE_DIPHOSPHATE_RIBOSE } #18 {DEOXYNUCLEOTIDESM } #19 {NICOTINAMIDE_RIBOSE } #20 {__124__Pyrimidine__45__Ribonucleosides__124__ } #21 {CPD0__45__1110 } #22 {CPD0__45__1699, COB__45__I__45__ALAMIN, ALLO__45__THR } #23 {CPD0__45__1699, ALLO__45__THR, COBINAMIDE } #24 {CPD0__45__1699, COB__45__I__45__ALAMIN, ETHANOL__45__AMINE } #25 {CPD0__45__1699, COBINAMIDE, ETHANOL__45__AMINE } #26 {L__45__ALLO__45__THREONINE, CPD0__45__1699, COB__45__I__45__ALAMIN } #27 {L__45__ALLO__45__THREONINE, CPD0__45__1699, COBINAMIDE } #28 {CPD0__45__1699, COB__45__I__45__ALAMIN, ETOH } #29 {CPD0__45__1699, COBINAMIDE, ETOH } #30 {_1__45__ETHYLADENINE, CPD0__45__1699, COB__45__I__45__ALAMIN } #31 {_1__45__ETHYLADENINE, CPD0__45__1699, COBINAMIDE } #32 {N__45__6__45__ISOPENTYL__45__ADENOSINE__45__37__45__TRNA } #33 {L__45__SELENOCYSTEINE } #34 {UDP__45__MURNAC__45__TETRAPEPTIDE } #35 {_3__45__SULFINOALANINE } #36 {TYR } #37 {GLUTAMATE__45__1__45__SEMIALDEHYDE } #38 {CPD__45__397 } #39 {CPD__45__12991, CPD__45__479 } #40 {CPD__45__1302 } #41 {S__45__ALLANTOIN } #42 {D__45__GALACTONATE } #43 {_25__45__DIDEHYDRO__45__D__45__GLUCONATE } #44 {GLC__45__6__45__P } #45 {__124__Beta__45__D__45__Glucuronides__124__ } #46 {D__45__GALACTURONATE } #47 {CPD0__45__1083 } #48 {DEOXY__45__D__45__RIBOSE__45__1__45__PHOSPHATE } #49 {GALACTITOL } #50 {BETA__45__D__45__FRUCTOSE } #51 {MANNITOL } #52 {SORBITOL } #53 {ALLOSE } #54 {GLUCOSAMINE } #55 {CHITOBIOSE } #56 {N__45__ACETYLNEURAMINATE } #57 {CPD0__45__1080 } #58 {NACMUR } #59 {D__45__SERINE } #60 {D__45__CYSTEINE } #61 {CPD__45__1782 } #62 {CPD__45__660 } #63 {ASCORBATE } #64 {__124__NAcMur__45__Peptide__45__NAcGlc__45__Undecaprenols__124__ } #65 {CPD0__45__1181 } #66 {N__45__METHYLTRYPTOPHAN } #67 {_2__45__AMINOMALONATE__45__SEMIALDEHYDE } #68 {L__45__RHAMNONATE } #69 {__124__L__45__rhamnose__124__ } #70 {L__45__FUCOSE } #71 {CPD__45__6761 } #72 {CPD__45__10797 } #73 {CPD__45__674 } #74 {_3__45__HYDROXYPHENYL__45__PROPIONATE } #75 {_3__45__PHENYLPROPIONATE } #76 {__124__ETR__45__Quinones__124__ } #77 {_3__45__MERCAPTO__45__PYRUVATE, __124__Alkanesulfonates__124__ } #78 {_3__45__MERCAPTO__45__PYRUVATE, TAURINE } #79 {D__45__GALACTARATE } #80 {CPD0__45__1090 } #81 {HYDROQUINONE__45__O__45__BETA__45__D__45__GLUCOPYRANOSIDE } #82 {CELLOBIOSE } #83 {MELIBIOSE } #84 {__124__Glucosylated__45__Glucose__45__Acceptors__124__ } #85 {ALLOLACTOSE } #86 {__124__Glycogens__124__ } #87 {D__45__GALACTONO__45__1__45__4__45__LACTONE } #88 {CPD__45__536 } #89 {DIACYLGLYCEROL__45__PYROPHOSPHATE } #90 {CPD__45__1142 } #91 {__124__Glycerophosphodiesters__124__ } #92 {L__45__GLYCERALDEHYDE__45__3__45__PHOSPHATE } "
"Papa Pitufo";1010;1164;"__124__NAcMur__45__Peptide__45__NAcGlc__45__Undecaprenols__124__";"a__32__lipid__32__II";689;4113;343;58;312;10558,6666666667;"#1 {__124__NAcMur__45__4Peptide__45__NAcGlc__45__Undecaprenols__124__, CPD0__45__1080 } #2 {__124__NAcMur__45__4Peptide__45__NAcGlc__45__Undecaprenols__124__, L__45__SELENOCYSTEINE } #3 {UDP__45__MURNAC__45__TETRAPEPTIDE, __124__NAcMur__45__4Peptide__45__NAcGlc__45__Undecaprenols__124__ } #4 {_3__45__SULFINOALANINE, __124__NAcMur__45__4Peptide__45__NAcGlc__45__Undecaprenols__124__ } #5 {D__45__SERINE, __124__NAcMur__45__4Peptide__45__NAcGlc__45__Undecaprenols__124__ } #6 {D__45__CYSTEINE, __124__NAcMur__45__4Peptide__45__NAcGlc__45__Undecaprenols__124__ } #7 {__124__NAcMur__45__4Peptide__45__NAcGlc__45__Undecaprenols__124__, CPD__45__1782 } #8 {N__45__ACETYLNEURAMINATE, __124__NAcMur__45__4Peptide__45__NAcGlc__45__Undecaprenols__124__ } #9 {CPD__45__660, __124__NAcMur__45__4Peptide__45__NAcGlc__45__Undecaprenols__124__ } #10 {D__45__4__45__HYDROXY__45__2__45__KETO__45__GLUTARATE, __124__NAcMur__45__4Peptide__45__NAcGlc__45__Undecaprenols__124__ } #11 {_2__45__O__45__ALPHA__45__MANNOSYL__45__D__45__GLYCERATE, __124__NAcMur__45__4Peptide__45__NAcGlc__45__Undecaprenols__124__ } #12 {N__45__METHYLTRYPTOPHAN, __124__NAcMur__45__4Peptide__45__NAcGlc__45__Undecaprenols__124__ } #13 {_2__45__AMINOMALONATE__45__SEMIALDEHYDE, __124__NAcMur__45__4Peptide__45__NAcGlc__45__Undecaprenols__124__ } #14 {__124__NAcMur__45__4Peptide__45__NAcGlc__45__Undecaprenols__124__, GLUCOSAMINE } #15 {L__45__RHAMNONATE, __124__NAcMur__45__4Peptide__45__NAcGlc__45__Undecaprenols__124__ } #16 {CHITOBIOSE, __124__NAcMur__45__4Peptide__45__NAcGlc__45__Undecaprenols__124__ } #17 {NACMUR, __124__NAcMur__45__4Peptide__45__NAcGlc__45__Undecaprenols__124__ } #18 {D__45__GALACTONATE, __124__NAcMur__45__4Peptide__45__NAcGlc__45__Undecaprenols__124__ } #19 {ASCORBATE, __124__NAcMur__45__4Peptide__45__NAcGlc__45__Undecaprenols__124__ } #20 {_25__45__DIDEHYDRO__45__D__45__GLUCONATE, __124__NAcMur__45__4Peptide__45__NAcGlc__45__Undecaprenols__124__ } #21 {GLC__45__6__45__P, __124__NAcMur__45__4Peptide__45__NAcGlc__45__Undecaprenols__124__ } #22 {__124__Beta__45__D__45__Glucuronides__124__, __124__NAcMur__45__4Peptide__45__NAcGlc__45__Undecaprenols__124__ } #23 {D__45__GALACTURONATE, __124__NAcMur__45__4Peptide__45__NAcGlc__45__Undecaprenols__124__ } #24 {CPD0__45__1083, __124__NAcMur__45__4Peptide__45__NAcGlc__45__Undecaprenols__124__ } #25 {MANNITOL, __124__NAcMur__45__4Peptide__45__NAcGlc__45__Undecaprenols__124__ } #26 {SORBITOL, __124__NAcMur__45__4Peptide__45__NAcGlc__45__Undecaprenols__124__ } #27 {GALACTITOL, __124__NAcMur__45__4Peptide__45__NAcGlc__45__Undecaprenols__124__ } #28 {BETA__45__D__45__FRUCTOSE, __124__NAcMur__45__4Peptide__45__NAcGlc__45__Undecaprenols__124__ } #29 {D__45__SEDOHEPTULOSE__45__7__45__P, __124__NAcMur__45__4Peptide__45__NAcGlc__45__Undecaprenols__124__ } #30 {ALLOSE, __124__NAcMur__45__4Peptide__45__NAcGlc__45__Undecaprenols__124__ } #31 {CPD__45__536, __124__NAcMur__45__4Peptide__45__NAcGlc__45__Undecaprenols__124__ } #32 {DIACYLGLYCEROL__45__PYROPHOSPHATE, __124__NAcMur__45__4Peptide__45__NAcGlc__45__Undecaprenols__124__ } #33 {__124__L__45__rhamnose__124__, __124__NAcMur__45__4Peptide__45__NAcGlc__45__Undecaprenols__124__ } #34 {L__45__FUCOSE, __124__NAcMur__45__4Peptide__45__NAcGlc__45__Undecaprenols__124__ } #35 {__124__Glycerophosphodiesters__124__, __124__NAcMur__45__4Peptide__45__NAcGlc__45__Undecaprenols__124__ } #36 {L__45__GLYCERALDEHYDE__45__3__45__PHOSPHATE, __124__NAcMur__45__4Peptide__45__NAcGlc__45__Undecaprenols__124__ } #37 {D__45__ARABINOSE, __124__NAcMur__45__4Peptide__45__NAcGlc__45__Undecaprenols__124__ } #38 {CPD__45__6761, __124__NAcMur__45__4Peptide__45__NAcGlc__45__Undecaprenols__124__ } #39 {_3__45__HYDROXYPHENYL__45__PROPIONATE, __124__NAcMur__45__4Peptide__45__NAcGlc__45__Undecaprenols__124__ } #40 {_3__45__PHENYLPROPIONATE, __124__NAcMur__45__4Peptide__45__NAcGlc__45__Undecaprenols__124__ } #41 {CPD__45__10797, __124__NAcMur__45__4Peptide__45__NAcGlc__45__Undecaprenols__124__ } #42 {CPD__45__674, __124__NAcMur__45__4Peptide__45__NAcGlc__45__Undecaprenols__124__ } #43 {__124__ETR__45__Quinones__124__, __124__NAcMur__45__4Peptide__45__NAcGlc__45__Undecaprenols__124__ } #44 {_3__45__MERCAPTO__45__PYRUVATE, __124__Alkanesulfonates__124__, __124__NAcMur__45__4Peptide__45__NAcGlc__45__Undecaprenols__124__ } #45 {_3__45__MERCAPTO__45__PYRUVATE, TAURINE, __124__NAcMur__45__4Peptide__45__NAcGlc__45__Undecaprenols__124__ } #46 {D__45__GALACTARATE, __124__NAcMur__45__4Peptide__45__NAcGlc__45__Undecaprenols__124__ } #47 {CPD0__45__1090, __124__NAcMur__45__4Peptide__45__NAcGlc__45__Undecaprenols__124__ } #48 {TARTRATE, __124__NAcMur__45__4Peptide__45__NAcGlc__45__Undecaprenols__124__ } #49 {HYDROQUINONE__45__O__45__BETA__45__D__45__GLUCOPYRANOSIDE, __124__NAcMur__45__4Peptide__45__NAcGlc__45__Undecaprenols__124__ } #50 {CELLOBIOSE, __124__NAcMur__45__4Peptide__45__NAcGlc__45__Undecaprenols__124__ } #51 {__124__NAcMur__45__4Peptide__45__NAcGlc__45__Undecaprenols__124__, GDP__45__D__45__GLUCOSE } #52 {MELIBIOSE, __124__NAcMur__45__4Peptide__45__NAcGlc__45__Undecaprenols__124__ } #53 {__124__Glucosylated__45__Glucose__45__Acceptors__124__, __124__NAcMur__45__4Peptide__45__NAcGlc__45__Undecaprenols__124__ } #54 {ALLOLACTOSE, __124__NAcMur__45__4Peptide__45__NAcGlc__45__Undecaprenols__124__ } #55 {__124__NAcMur__45__4Peptide__45__NAcGlc__45__Undecaprenols__124__, __124__Glycogens__124__ } #56 {D__45__GALACTONO__45__1__45__4__45__LACTONE, __124__NAcMur__45__4Peptide__45__NAcGlc__45__Undecaprenols__124__ } #57 {CPD__45__1142, __124__NAcMur__45__4Peptide__45__NAcGlc__45__Undecaprenols__124__ } #58 {CPD0__45__1181, __124__NAcMur__45__4Peptide__45__NAcGlc__45__Undecaprenols__124__ } "
"Papa Pitufo";1010;1164;"L__45__ALPHA__45__ALANINE";"L__45__alanine";690;4005;344;59;318;10485;"#1 {L__45__SELENOCYSTEINE } #2 {UDP__45__MURNAC__45__TETRAPEPTIDE } #3 {_3__45__SULFINOALANINE } #4 {D__45__SERINE } #5 {D__45__CYSTEINE } #6 {CPD__45__1782 } #7 {N__45__ACETYLNEURAMINATE } #8 {CPD__45__660 } #9 {D__45__4__45__HYDROXY__45__2__45__KETO__45__GLUTARATE } #10 {_2__45__O__45__ALPHA__45__MANNOSYL__45__D__45__GLYCERATE } #11 {__124__NAcMur__45__Peptide__45__NAcGlc__45__Undecaprenols__124__ } #12 {CPD0__45__1080 } #13 {CPD0__45__1181 } #14 {N__45__METHYLTRYPTOPHAN } #15 {_2__45__AMINOMALONATE__45__SEMIALDEHYDE } #16 {GLUCOSAMINE } #17 {L__45__RHAMNONATE } #18 {CHITOBIOSE } #19 {NACMUR } #20 {D__45__GALACTONATE } #21 {ASCORBATE } #22 {_25__45__DIDEHYDRO__45__D__45__GLUCONATE } #23 {GLC__45__6__45__P } #24 {__124__Beta__45__D__45__Glucuronides__124__ } #25 {D__45__GALACTURONATE } #26 {CPD0__45__1083 } #27 {MANNITOL } #28 {SORBITOL } #29 {GALACTITOL } #30 {BETA__45__D__45__FRUCTOSE } #31 {D__45__SEDOHEPTULOSE__45__7__45__P } #32 {ALLOSE } #33 {CPD__45__536 } #34 {DIACYLGLYCEROL__45__PYROPHOSPHATE } #35 {__124__L__45__rhamnose__124__ } #36 {L__45__FUCOSE } #37 {__124__Glycerophosphodiesters__124__ } #38 {L__45__GLYCERALDEHYDE__45__3__45__PHOSPHATE } #39 {D__45__ARABINOSE } #40 {CPD__45__6761 } #41 {_3__45__HYDROXYPHENYL__45__PROPIONATE } #42 {_3__45__PHENYLPROPIONATE } #43 {CPD__45__10797 } #44 {CPD__45__674 } #45 {__124__ETR__45__Quinones__124__ } #46 {_3__45__MERCAPTO__45__PYRUVATE, __124__Alkanesulfonates__124__ } #47 {_3__45__MERCAPTO__45__PYRUVATE, TAURINE } #48 {D__45__GALACTARATE } #49 {CPD0__45__1090 } #50 {TARTRATE } #51 {HYDROQUINONE__45__O__45__BETA__45__D__45__GLUCOPYRANOSIDE } #52 {CELLOBIOSE } #53 {GDP__45__D__45__GLUCOSE } #54 {MELIBIOSE } #55 {__124__Glucosylated__45__Glucose__45__Acceptors__124__ } #56 {ALLOLACTOSE } #57 {__124__Glycogens__124__ } #58 {D__45__GALACTONO__45__1__45__4__45__LACTONE } #59 {CPD__45__1142 } "
"Papa Pitufo";1010;1164;"LYS";"L__45__lysine";690;483;344;3;8;9424,3333333333;"#1 {CPD0__45__1032 } #2 {CPD0__45__1080 } #3 {PSICOSELYSINE } "
"Papa Pitufo";1010;1164;"CYTOSINE";"cytosine";349;6;344;2;3;43,3333333333;"#1 {CYTIDINE } #2 {N3__45__METHYLCYTOSINE } "
"Papa Pitufo (Min)";1010;1164;"L__45__ASPARTATE";"L__45__aspartate";714;21075;344;92;533;47717;"#1 {TARTRATE } #2 {D__45__4__45__HYDROXY__45__2__45__KETO__45__GLUTARATE } #3 {CPD__45__381 } #4 {CPD0__45__889 } #5 {GLYCOL } #6 {D__45__SEDOHEPTULOSE__45__7__45__P } #7 {D__45__ARABINOSE } #8 {CPD__45__582 } #9 {CGMP } #10 {GDP__45__D__45__GLUCOSE } #11 {_2__45__O__45__ALPHA__45__MANNOSYL__45__D__45__GLYCERATE } #12 {GMP__45__LYSINE__45__PHOSPHORAMIDATE } #13 {ITP } #14 {__124__Purine__45__Ribonucleosides__124__ } #15 {XANTHOSINE } #16 {CYTIDINE } #17 {ADENOSINE_DIPHOSPHATE_RIBOSE } #18 {DEOXYNUCLEOTIDESM } #19 {NICOTINAMIDE_RIBOSE } #20 {__124__Pyrimidine__45__Ribonucleosides__124__ } #21 {CPD0__45__1110 } #22 {CPD0__45__1699, COB__45__I__45__ALAMIN, ALLO__45__THR } #23 {CPD0__45__1699, ALLO__45__THR, COBINAMIDE } #24 {CPD0__45__1699, COB__45__I__45__ALAMIN, ETHANOL__45__AMINE } #25 {CPD0__45__1699, COBINAMIDE, ETHANOL__45__AMINE } #26 {L__45__ALLO__45__THREONINE, CPD0__45__1699, COB__45__I__45__ALAMIN } #27 {L__45__ALLO__45__THREONINE, CPD0__45__1699, COBINAMIDE } #28 {CPD0__45__1699, COB__45__I__45__ALAMIN, ETOH } #29 {CPD0__45__1699, COBINAMIDE, ETOH } #30 {_1__45__ETHYLADENINE, CPD0__45__1699, COB__45__I__45__ALAMIN } #31 {_1__45__ETHYLADENINE, CPD0__45__1699, COBINAMIDE } #32 {N__45__6__45__ISOPENTYL__45__ADENOSINE__45__37__45__TRNA } #33 {L__45__SELENOCYSTEINE } #34 {UDP__45__MURNAC__45__TETRAPEPTIDE } #35 {_3__45__SULFINOALANINE } #36 {TYR } #37 {GLUTAMATE__45__1__45__SEMIALDEHYDE } #38 {CPD__45__397 } #39 {CPD__45__12991, CPD__45__479 } #40 {CPD__45__1302 } #41 {S__45__ALLANTOIN } #42 {DEOXY__45__D__45__RIBOSE__45__1__45__PHOSPHATE } #43 {GALACTITOL } #44 {D__45__GALACTONATE } #45 {_25__45__DIDEHYDRO__45__D__45__GLUCONATE } #46 {GLC__45__6__45__P } #47 {__124__Beta__45__D__45__Glucuronides__124__ } #48 {D__45__GALACTURONATE } #49 {CPD0__45__1083 } #50 {BETA__45__D__45__FRUCTOSE } #51 {CHITOBIOSE } #52 {CPD0__45__1080 } #53 {N__45__ACETYLNEURAMINATE } #54 {NACMUR } #55 {GLUCOSAMINE } #56 {MANNITOL } #57 {SORBITOL } #58 {ALLOSE } #59 {D__45__SERINE } #60 {D__45__CYSTEINE } #61 {HYDROQUINONE__45__O__45__BETA__45__D__45__GLUCOPYRANOSIDE } #62 {CELLOBIOSE } #63 {CPD__45__1782 } #64 {CPD__45__660 } #65 {CPD__45__1142 } #66 {__124__NAcMur__45__Peptide__45__NAcGlc__45__Undecaprenols__124__ } #67 {CPD0__45__1181 } #68 {N__45__METHYLTRYPTOPHAN } #69 {_2__45__AMINOMALONATE__45__SEMIALDEHYDE } #70 {L__45__RHAMNONATE } #71 {__124__L__45__rhamnose__124__ } #72 {L__45__FUCOSE } #73 {ASCORBATE } #74 {MELIBIOSE } #75 {__124__Glucosylated__45__Glucose__45__Acceptors__124__ } #76 {ALLOLACTOSE } #77 {__124__Glycogens__124__ } #78 {D__45__GALACTONO__45__1__45__4__45__LACTONE } #79 {CPD__45__536 } #80 {DIACYLGLYCEROL__45__PYROPHOSPHATE } #81 {__124__Glycerophosphodiesters__124__ } #82 {L__45__GLYCERALDEHYDE__45__3__45__PHOSPHATE } #83 {__124__ETR__45__Quinones__124__ } #84 {_3__45__MERCAPTO__45__PYRUVATE, __124__Alkanesulfonates__124__ } #85 {TAURINE, _3__45__MERCAPTO__45__PYRUVATE } #86 {D__45__GALACTARATE } #87 {CPD0__45__1090 } #88 {CPD__45__6761 } #89 {_3__45__HYDROXYPHENYL__45__PROPIONATE } #90 {_3__45__PHENYLPROPIONATE } #91 {CPD__45__10797 } #92 {CPD__45__674 } "
"Papa Pitufo (Min)";1010;1164;"GLN";"L__45__glutamine";719;12009;344;32;554;30996,6666666667;"#1 {CPD0__45__889 } #2 {CPD__45__381 } #3 {TARTRATE } #4 {D__45__4__45__HYDROXY__45__2__45__KETO__45__GLUTARATE } #5 {GLYCOL } #6 {D__45__SEDOHEPTULOSE__45__7__45__P } #7 {D__45__ARABINOSE } #8 {CPD__45__582 } #9 {CGMP } #10 {GDP__45__D__45__GLUCOSE } #11 {_2__45__O__45__ALPHA__45__MANNOSYL__45__D__45__GLYCERATE } #12 {GMP__45__LYSINE__45__PHOSPHORAMIDATE } #13 {ITP } #14 {__124__Purine__45__Ribonucleosides__124__ } #15 {XANTHOSINE } #16 {CYTIDINE } #17 {ADENOSINE_DIPHOSPHATE_RIBOSE } #18 {DEOXYNUCLEOTIDESM } #19 {NICOTINAMIDE_RIBOSE } #20 {__124__Pyrimidine__45__Ribonucleosides__124__ } #21 {CPD0__45__1110 } #22 {N__45__6__45__ISOPENTYL__45__ADENOSINE__45__37__45__TRNA } #23 {L__45__SELENOCYSTEINE } #24 {UDP__45__MURNAC__45__TETRAPEPTIDE } #25 {_3__45__SULFINOALANINE } #26 {_2__45__AMINOMALONATE__45__SEMIALDEHYDE, PROT__45__CYS } #27 {TYR } #28 {GLUTAMATE__45__1__45__SEMIALDEHYDE } #29 {CPD__45__397 } #30 {CPD__45__12991, CPD__45__479 } #31 {CPD__45__1302 } #32 {S__45__ALLANTOIN } "
"Papa Pitufo (Min)";1010;1164;"MET";"L__45__methionine";737;4638;344;63;428;14165,3333333333;"#1 {N__45__6__45__ISOPENTYL__45__ADENOSINE__45__37__45__TRNA } #2 {L__45__SELENOCYSTEINE } #3 {UDP__45__MURNAC__45__TETRAPEPTIDE } #4 {_3__45__SULFINOALANINE } #5 {_2__45__O__45__ALPHA__45__MANNOSYL__45__D__45__GLYCERATE } #6 {CPD__45__12991, CPD__45__479 } #7 {__124__Ribonuc__45__tri__45__P__45__reductases__45__inactive__124__ } #8 {__124__Purine__45__Ribonucleosides__124__ } #9 {XANTHOSINE } #10 {__124__Pyrimidine__45__Ribonucleosides__124__ } #11 {CYTIDINE } #12 {CPD0__45__1110 } #13 {ADENOSINE_DIPHOSPHATE_RIBOSE } #14 {DEOXYNUCLEOTIDESM } #15 {NICOTINAMIDE_RIBOSE } #16 {TYR } #17 {GLUTAMATE__45__1__45__SEMIALDEHYDE } #18 {D__45__SERINE } #19 {D__45__CYSTEINE } #20 {CPD__45__1782 } #21 {N__45__ACETYLNEURAMINATE } #22 {CPD__45__660 } #23 {D__45__4__45__HYDROXY__45__2__45__KETO__45__GLUTARATE } #24 {D__45__GALACTONATE } #25 {_25__45__DIDEHYDRO__45__D__45__GLUCONATE } #26 {GLC__45__6__45__P } #27 {__124__Beta__45__D__45__Glucuronides__124__ } #28 {D__45__GALACTURONATE } #29 {CPD0__45__1083 } #30 {__124__NAcMur__45__Peptide__45__NAcGlc__45__Undecaprenols__124__ } #31 {CPD0__45__1080 } #32 {CPD0__45__1181 } #33 {N__45__METHYLTRYPTOPHAN } #34 {_2__45__AMINOMALONATE__45__SEMIALDEHYDE } #35 {L__45__RHAMNONATE } #36 {__124__L__45__rhamnose__124__ } #37 {L__45__FUCOSE } #38 {D__45__SEDOHEPTULOSE__45__7__45__P } #39 {D__45__ARABINOSE } #40 {__124__Glycerophosphodiesters__124__ } #41 {L__45__GLYCERALDEHYDE__45__3__45__PHOSPHATE } #42 {CPD__45__536 } #43 {DIACYLGLYCEROL__45__PYROPHOSPHATE } #44 {TARTRATE } #45 {GLYCOL } #46 {CPD__45__582 } #47 {CGMP } #48 {GDP__45__D__45__GLUCOSE } #49 {BETA__45__D__45__FRUCTOSE } #50 {ALLOSE } #51 {GMP__45__LYSINE__45__PHOSPHORAMIDATE } #52 {ITP } #53 {CPD0__45__1699, COB__45__I__45__ALAMIN } #54 {CPD0__45__1699, COBINAMIDE } #55 {S__45__ALLANTOIN } #56 {CPD__45__6761 } #57 {_3__45__HYDROXYPHENYL__45__PROPIONATE } #58 {_3__45__PHENYLPROPIONATE } #59 {CPD__45__10797 } #60 {CPD__45__674 } #61 {__124__ETR__45__Quinones__124__ } #62 {D__45__GALACTARATE } #63 {CPD0__45__1090 } "
"Papa Pitufo (Min)";1010;1164;"GLY";"glycine";706;6538;344;88;330;13903,3333333333;"#1 {CPD__45__644 } #2 {ALLO__45__THR } #3 {L__45__ALLO__45__THREONINE } #4 {D__45__SEDOHEPTULOSE__45__7__45__P } #5 {_2__45__AMINOMALONATE__45__SEMIALDEHYDE } #6 {_2__45__O__45__ALPHA__45__MANNOSYL__45__D__45__GLYCERATE } #7 {DEOXY__45__D__45__RIBOSE__45__1__45__PHOSPHATE } #8 {BETA__45__D__45__FRUCTOSE } #9 {GLC__45__6__45__P } #10 {CHITOBIOSE } #11 {CPD0__45__1080 } #12 {N__45__ACETYLNEURAMINATE } #13 {NACMUR } #14 {GLUCOSAMINE } #15 {MANNITOL } #16 {SORBITOL } #17 {ALLOSE } #18 {D__45__GALACTONATE } #19 {__124__Purine__45__Ribonucleosides__124__, CPD0__45__1147 } #20 {XANTHOSINE, CPD0__45__1147 } #21 {ADENOSINE_DIPHOSPHATE_RIBOSE, CPD0__45__1147 } #22 {CPD0__45__1147, DEOXYNUCLEOTIDESM } #23 {NICOTINAMIDE_RIBOSE, CPD0__45__1147 } #24 {CPD0__45__1147, __124__Pyrimidine__45__Ribonucleosides__124__ } #25 {CPD0__45__1147, CYTIDINE } #26 {CPD0__45__1147, CPD0__45__1110 } #27 {_25__45__DIDEHYDRO__45__D__45__GLUCONATE } #28 {__124__Beta__45__D__45__Glucuronides__124__ } #29 {D__45__GALACTURONATE } #30 {CPD0__45__1083 } #31 {GALACTITOL } #32 {TARTRATE } #33 {D__45__4__45__HYDROXY__45__2__45__KETO__45__GLUTARATE } #34 {CPD__45__381 } #35 {CPD0__45__889 } #36 {GLYCOL } #37 {D__45__ARABINOSE } #38 {CPD__45__582 } #39 {CGMP } #40 {GDP__45__D__45__GLUCOSE } #41 {GMP__45__LYSINE__45__PHOSPHORAMIDATE } #42 {DIMETHYLBENZIMIDAZOLE, COBINAMIDE } #43 {ITP } #44 {CPD0__45__1699, COB__45__I__45__ALAMIN } #45 {CPD0__45__1699, COBINAMIDE } #46 {CPD__45__397 } #47 {N__45__6__45__ISOPENTYL__45__ADENOSINE__45__37__45__TRNA } #48 {CPD__45__1302 } #49 {TYR } #50 {CPD__45__12991, CPD__45__479 } #51 {L__45__SELENOCYSTEINE } #52 {UDP__45__MURNAC__45__TETRAPEPTIDE } #53 {_3__45__SULFINOALANINE } #54 {GLUTAMATE__45__1__45__SEMIALDEHYDE } #55 {S__45__ALLANTOIN } #56 {D__45__SERINE } #57 {D__45__CYSTEINE } #58 {HYDROQUINONE__45__O__45__BETA__45__D__45__GLUCOPYRANOSIDE } #59 {CELLOBIOSE } #60 {CPD__45__1782 } #61 {CPD__45__660 } #62 {CPD__45__1142 } #63 {CPD__45__6761 } #64 {_3__45__HYDROXYPHENYL__45__PROPIONATE } #65 {_3__45__PHENYLPROPIONATE } #66 {CPD__45__10797 } #67 {CPD__45__674 } #68 {ASCORBATE } #69 {__124__NAcMur__45__Peptide__45__NAcGlc__45__Undecaprenols__124__ } #70 {CPD0__45__1181 } #71 {N__45__METHYLTRYPTOPHAN } #72 {L__45__RHAMNONATE } #73 {__124__L__45__rhamnose__124__ } #74 {L__45__FUCOSE } #75 {__124__Glycerophosphodiesters__124__ } #76 {L__45__GLYCERALDEHYDE__45__3__45__PHOSPHATE } #77 {CPD__45__536 } #78 {DIACYLGLYCEROL__45__PYROPHOSPHATE } #79 {__124__ETR__45__Quinones__124__ } #80 {_3__45__MERCAPTO__45__PYRUVATE, __124__Alkanesulfonates__124__ } #81 {_3__45__MERCAPTO__45__PYRUVATE, TAURINE } #82 {D__45__GALACTARATE } #83 {CPD0__45__1090 } #84 {MELIBIOSE } #85 {__124__Glucosylated__45__Glucose__45__Acceptors__124__ } #86 {ALLOLACTOSE } #87 {__124__Glycogens__124__ } #88 {D__45__GALACTONO__45__1__45__4__45__LACTONE } "
"Papa Pitufo (Min)";1010;1164;"__124__NAcMur__45__Peptide__45__NAcGlc__45__Undecaprenols__124__";"a__32__lipid__32__II";689;3948;343;58;297;10638,6666666667;"#1 {__124__NAcMur__45__4Peptide__45__NAcGlc__45__Undecaprenols__124__, CPD0__45__1080 } #2 {__124__NAcMur__45__4Peptide__45__NAcGlc__45__Undecaprenols__124__, L__45__SELENOCYSTEINE } #3 {UDP__45__MURNAC__45__TETRAPEPTIDE, __124__NAcMur__45__4Peptide__45__NAcGlc__45__Undecaprenols__124__ } #4 {_3__45__SULFINOALANINE, __124__NAcMur__45__4Peptide__45__NAcGlc__45__Undecaprenols__124__ } #5 {D__45__SERINE, __124__NAcMur__45__4Peptide__45__NAcGlc__45__Undecaprenols__124__ } #6 {D__45__CYSTEINE, __124__NAcMur__45__4Peptide__45__NAcGlc__45__Undecaprenols__124__ } #7 {__124__NAcMur__45__4Peptide__45__NAcGlc__45__Undecaprenols__124__, CPD__45__1782 } #8 {N__45__ACETYLNEURAMINATE, __124__NAcMur__45__4Peptide__45__NAcGlc__45__Undecaprenols__124__ } #9 {CPD__45__660, __124__NAcMur__45__4Peptide__45__NAcGlc__45__Undecaprenols__124__ } #10 {D__45__4__45__HYDROXY__45__2__45__KETO__45__GLUTARATE, __124__NAcMur__45__4Peptide__45__NAcGlc__45__Undecaprenols__124__ } #11 {_2__45__O__45__ALPHA__45__MANNOSYL__45__D__45__GLYCERATE, __124__NAcMur__45__4Peptide__45__NAcGlc__45__Undecaprenols__124__ } #12 {N__45__METHYLTRYPTOPHAN, __124__NAcMur__45__4Peptide__45__NAcGlc__45__Undecaprenols__124__ } #13 {_2__45__AMINOMALONATE__45__SEMIALDEHYDE, __124__NAcMur__45__4Peptide__45__NAcGlc__45__Undecaprenols__124__ } #14 {__124__NAcMur__45__4Peptide__45__NAcGlc__45__Undecaprenols__124__, GLUCOSAMINE } #15 {L__45__RHAMNONATE, __124__NAcMur__45__4Peptide__45__NAcGlc__45__Undecaprenols__124__ } #16 {CHITOBIOSE, __124__NAcMur__45__4Peptide__45__NAcGlc__45__Undecaprenols__124__ } #17 {NACMUR, __124__NAcMur__45__4Peptide__45__NAcGlc__45__Undecaprenols__124__ } #18 {D__45__GALACTONATE, __124__NAcMur__45__4Peptide__45__NAcGlc__45__Undecaprenols__124__ } #19 {ASCORBATE, __124__NAcMur__45__4Peptide__45__NAcGlc__45__Undecaprenols__124__ } #20 {_25__45__DIDEHYDRO__45__D__45__GLUCONATE, __124__NAcMur__45__4Peptide__45__NAcGlc__45__Undecaprenols__124__ } #21 {GLC__45__6__45__P, __124__NAcMur__45__4Peptide__45__NAcGlc__45__Undecaprenols__124__ } #22 {__124__Beta__45__D__45__Glucuronides__124__, __124__NAcMur__45__4Peptide__45__NAcGlc__45__Undecaprenols__124__ } #23 {D__45__GALACTURONATE, __124__NAcMur__45__4Peptide__45__NAcGlc__45__Undecaprenols__124__ } #24 {CPD0__45__1083, __124__NAcMur__45__4Peptide__45__NAcGlc__45__Undecaprenols__124__ } #25 {MANNITOL, __124__NAcMur__45__4Peptide__45__NAcGlc__45__Undecaprenols__124__ } #26 {SORBITOL, __124__NAcMur__45__4Peptide__45__NAcGlc__45__Undecaprenols__124__ } #27 {GALACTITOL, __124__NAcMur__45__4Peptide__45__NAcGlc__45__Undecaprenols__124__ } #28 {BETA__45__D__45__FRUCTOSE, __124__NAcMur__45__4Peptide__45__NAcGlc__45__Undecaprenols__124__ } #29 {D__45__SEDOHEPTULOSE__45__7__45__P, __124__NAcMur__45__4Peptide__45__NAcGlc__45__Undecaprenols__124__ } #30 {ALLOSE, __124__NAcMur__45__4Peptide__45__NAcGlc__45__Undecaprenols__124__ } #31 {CPD__45__536, __124__NAcMur__45__4Peptide__45__NAcGlc__45__Undecaprenols__124__ } #32 {DIACYLGLYCEROL__45__PYROPHOSPHATE, __124__NAcMur__45__4Peptide__45__NAcGlc__45__Undecaprenols__124__ } #33 {__124__L__45__rhamnose__124__, __124__NAcMur__45__4Peptide__45__NAcGlc__45__Undecaprenols__124__ } #34 {L__45__FUCOSE, __124__NAcMur__45__4Peptide__45__NAcGlc__45__Undecaprenols__124__ } #35 {__124__Glycerophosphodiesters__124__, __124__NAcMur__45__4Peptide__45__NAcGlc__45__Undecaprenols__124__ } #36 {L__45__GLYCERALDEHYDE__45__3__45__PHOSPHATE, __124__NAcMur__45__4Peptide__45__NAcGlc__45__Undecaprenols__124__ } #37 {D__45__ARABINOSE, __124__NAcMur__45__4Peptide__45__NAcGlc__45__Undecaprenols__124__ } #38 {CPD__45__6761, __124__NAcMur__45__4Peptide__45__NAcGlc__45__Undecaprenols__124__ } #39 {_3__45__HYDROXYPHENYL__45__PROPIONATE, __124__NAcMur__45__4Peptide__45__NAcGlc__45__Undecaprenols__124__ } #40 {_3__45__PHENYLPROPIONATE, __124__NAcMur__45__4Peptide__45__NAcGlc__45__Undecaprenols__124__ } #41 {CPD__45__10797, __124__NAcMur__45__4Peptide__45__NAcGlc__45__Undecaprenols__124__ } #42 {CPD__45__674, __124__NAcMur__45__4Peptide__45__NAcGlc__45__Undecaprenols__124__ } #43 {__124__ETR__45__Quinones__124__, __124__NAcMur__45__4Peptide__45__NAcGlc__45__Undecaprenols__124__ } #44 {_3__45__MERCAPTO__45__PYRUVATE, __124__Alkanesulfonates__124__, __124__NAcMur__45__4Peptide__45__NAcGlc__45__Undecaprenols__124__ } #45 {_3__45__MERCAPTO__45__PYRUVATE, TAURINE, __124__NAcMur__45__4Peptide__45__NAcGlc__45__Undecaprenols__124__ } #46 {D__45__GALACTARATE, __124__NAcMur__45__4Peptide__45__NAcGlc__45__Undecaprenols__124__ } #47 {CPD0__45__1090, __124__NAcMur__45__4Peptide__45__NAcGlc__45__Undecaprenols__124__ } #48 {TARTRATE, __124__NAcMur__45__4Peptide__45__NAcGlc__45__Undecaprenols__124__ } #49 {HYDROQUINONE__45__O__45__BETA__45__D__45__GLUCOPYRANOSIDE, __124__NAcMur__45__4Peptide__45__NAcGlc__45__Undecaprenols__124__ } #50 {CELLOBIOSE, __124__NAcMur__45__4Peptide__45__NAcGlc__45__Undecaprenols__124__ } #51 {__124__NAcMur__45__4Peptide__45__NAcGlc__45__Undecaprenols__124__, GDP__45__D__45__GLUCOSE } #52 {MELIBIOSE, __124__NAcMur__45__4Peptide__45__NAcGlc__45__Undecaprenols__124__ } #53 {__124__Glucosylated__45__Glucose__45__Acceptors__124__, __124__NAcMur__45__4Peptide__45__NAcGlc__45__Undecaprenols__124__ } #54 {ALLOLACTOSE, __124__NAcMur__45__4Peptide__45__NAcGlc__45__Undecaprenols__124__ } #55 {__124__NAcMur__45__4Peptide__45__NAcGlc__45__Undecaprenols__124__, __124__Glycogens__124__ } #56 {D__45__GALACTONO__45__1__45__4__45__LACTONE, __124__NAcMur__45__4Peptide__45__NAcGlc__45__Undecaprenols__124__ } #57 {CPD__45__1142, __124__NAcMur__45__4Peptide__45__NAcGlc__45__Undecaprenols__124__ } #58 {CPD0__45__1181, __124__NAcMur__45__4Peptide__45__NAcGlc__45__Undecaprenols__124__ } "
"Papa Pitufo (Min)";1010;1164;"L__45__ALPHA__45__ALANINE";"L__45__alanine";690;3908;344;59;304;10553,6666666667;"#1 {L__45__SELENOCYSTEINE } #2 {UDP__45__MURNAC__45__TETRAPEPTIDE } #3 {_3__45__SULFINOALANINE } #4 {D__45__SERINE } #5 {D__45__CYSTEINE } #6 {CPD__45__1782 } #7 {N__45__ACETYLNEURAMINATE } #8 {CPD__45__660 } #9 {D__45__4__45__HYDROXY__45__2__45__KETO__45__GLUTARATE } #10 {_2__45__O__45__ALPHA__45__MANNOSYL__45__D__45__GLYCERATE } #11 {__124__NAcMur__45__Peptide__45__NAcGlc__45__Undecaprenols__124__ } #12 {CPD0__45__1080 } #13 {CPD0__45__1181 } #14 {N__45__METHYLTRYPTOPHAN } #15 {_2__45__AMINOMALONATE__45__SEMIALDEHYDE } #16 {GLUCOSAMINE } #17 {L__45__RHAMNONATE } #18 {CHITOBIOSE } #19 {NACMUR } #20 {D__45__GALACTONATE } #21 {ASCORBATE } #22 {_25__45__DIDEHYDRO__45__D__45__GLUCONATE } #23 {GLC__45__6__45__P } #24 {__124__Beta__45__D__45__Glucuronides__124__ } #25 {D__45__GALACTURONATE } #26 {CPD0__45__1083 } #27 {MANNITOL } #28 {SORBITOL } #29 {GALACTITOL } #30 {BETA__45__D__45__FRUCTOSE } #31 {D__45__SEDOHEPTULOSE__45__7__45__P } #32 {ALLOSE } #33 {CPD__45__536 } #34 {DIACYLGLYCEROL__45__PYROPHOSPHATE } #35 {__124__L__45__rhamnose__124__ } #36 {L__45__FUCOSE } #37 {__124__Glycerophosphodiesters__124__ } #38 {L__45__GLYCERALDEHYDE__45__3__45__PHOSPHATE } #39 {D__45__ARABINOSE } #40 {CPD__45__6761 } #41 {_3__45__HYDROXYPHENYL__45__PROPIONATE } #42 {_3__45__PHENYLPROPIONATE } #43 {CPD__45__10797 } #44 {CPD__45__674 } #45 {__124__ETR__45__Quinones__124__ } #46 {_3__45__MERCAPTO__45__PYRUVATE, __124__Alkanesulfonates__124__ } #47 {_3__45__MERCAPTO__45__PYRUVATE, TAURINE } #48 {D__45__GALACTARATE } #49 {CPD0__45__1090 } #50 {TARTRATE } #51 {HYDROQUINONE__45__O__45__BETA__45__D__45__GLUCOPYRANOSIDE } #52 {CELLOBIOSE } #53 {GDP__45__D__45__GLUCOSE } #54 {MELIBIOSE } #55 {__124__Glucosylated__45__Glucose__45__Acceptors__124__ } #56 {ALLOLACTOSE } #57 {__124__Glycogens__124__ } #58 {D__45__GALACTONO__45__1__45__4__45__LACTONE } #59 {CPD__45__1142 } "
"Papa Pitufo (Min)";1010;1164;"LYS";"L__45__lysine";690;483;344;3;8;9579;"#1 {CPD0__45__1032 } #2 {CPD0__45__1080 } #3 {PSICOSELYSINE } "
"Papa Pitufo (Min)";1010;1164;"ARG";"L__45__arginine";733;597;344;1;23;9370,3333333333;"#1 {CARBAMOYL__45__P } "
"Papa Pitufo (Min)";1010;1164;"CYTOSINE";"cytosine";349;6;344;2;3;41,6666666667;"#1 {CYTIDINE } #2 {N3__45__METHYLCYTOSINE } "
"Pitufina";1010;1164;"MET";"L__45__methionine";737;545;344;63;22985811;632200;"#1 {CPD__45__479, CPD__45__12991 } #2 {N__45__6__45__ISOPENTYL__45__ADENOSINE__45__37__45__TRNA } #3 {L__45__SELENOCYSTEINE } #4 {UDP__45__MURNAC__45__TETRAPEPTIDE } #5 {_3__45__SULFINOALANINE } #6 {N__45__METHYLTRYPTOPHAN } #7 {__124__L__45__rhamnose__124__ } #8 {__124__Glycerophosphodiesters__124__ } #9 {DIACYLGLYCEROL__45__PYROPHOSPHATE } #10 {CPD__45__536 } #11 {L__45__GLYCERALDEHYDE__45__3__45__PHOSPHATE } #12 {L__45__FUCOSE } #13 {D__45__GALACTONATE } #14 {_3__45__HYDROXYPHENYL__45__PROPIONATE } #15 {_3__45__PHENYLPROPIONATE } #16 {CPD__45__10797 } #17 {CPD__45__674 } #18 {CPD__45__6761 } #19 {D__45__SERINE } #20 {D__45__CYSTEINE } #21 {_25__45__DIDEHYDRO__45__D__45__GLUCONATE } #22 {__124__Beta__45__D__45__Glucuronides__124__ } #23 {D__45__GALACTURONATE } #24 {CPD0__45__1083 } #25 {__124__NAcMur__45__Peptide__45__NAcGlc__45__Undecaprenols__124__ } #26 {CPD0__45__1181 } #27 {__124__ETR__45__Quinones__124__ } #28 {L__45__RHAMNONATE } #29 {CPD0__45__1090 } #30 {D__45__GALACTARATE } #31 {_2__45__AMINOMALONATE__45__SEMIALDEHYDE } #32 {CPD__45__1782 } #33 {TARTRATE } #34 {GLYCOL } #35 {D__45__ARABINOSE } #36 {CPD0__45__1080 } #37 {BETA__45__D__45__FRUCTOSE } #38 {GLC__45__6__45__P } #39 {D__45__SEDOHEPTULOSE__45__7__45__P } #40 {ALLOSE } #41 {ITP } #42 {GMP__45__LYSINE__45__PHOSPHORAMIDATE } #43 {GDP__45__D__45__GLUCOSE } #44 {CPD__45__582 } #45 {CGMP } #46 {CPD0__45__1699, COB__45__I__45__ALAMIN } #47 {CPD0__45__1699, COBINAMIDE } #48 {S__45__ALLANTOIN } #49 {N__45__ACETYLNEURAMINATE } #50 {CPD__45__660 } #51 {D__45__4__45__HYDROXY__45__2__45__KETO__45__GLUTARATE } #52 {_2__45__O__45__ALPHA__45__MANNOSYL__45__D__45__GLYCERATE } #53 {__124__Ribonuc__45__tri__45__P__45__reductases__45__inactive__124__ } #54 {ADENOSINE_DIPHOSPHATE_RIBOSE } #55 {DEOXYNUCLEOTIDESM } #56 {NICOTINAMIDE_RIBOSE } #57 {__124__Pyrimidine__45__Ribonucleosides__124__ } #58 {CPD0__45__1110 } #59 {__124__Purine__45__Ribonucleosides__124__ } #60 {CYTIDINE } #61 {XANTHOSINE } #62 {TYR } #63 {GLUTAMATE__45__1__45__SEMIALDEHYDE } "
"Pitufina";1010;1164;"GLY";"glycine";706;503;344;88;18995326;553208,666666667;"#1 {CPD__45__644 } #2 {_2__45__AMINOMALONATE__45__SEMIALDEHYDE } #3 {DEOXY__45__D__45__RIBOSE__45__1__45__PHOSPHATE } #4 {CPD0__45__1147, ADENOSINE_DIPHOSPHATE_RIBOSE } #5 {CPD0__45__1147, DEOXYNUCLEOTIDESM } #6 {CPD0__45__1147, NICOTINAMIDE_RIBOSE } #7 {CPD0__45__1147, __124__Pyrimidine__45__Ribonucleosides__124__ } #8 {CPD0__45__1147, CPD0__45__1110 } #9 {CPD0__45__1147, __124__Purine__45__Ribonucleosides__124__ } #10 {CPD0__45__1147, CYTIDINE } #11 {CPD0__45__1147, XANTHOSINE } #12 {N__45__METHYLTRYPTOPHAN } #13 {__124__L__45__rhamnose__124__ } #14 {__124__Glycerophosphodiesters__124__ } #15 {L__45__GLYCERALDEHYDE__45__3__45__PHOSPHATE } #16 {L__45__FUCOSE } #17 {D__45__GALACTONATE } #18 {_3__45__HYDROXYPHENYL__45__PROPIONATE } #19 {_3__45__PHENYLPROPIONATE } #20 {CPD__45__10797 } #21 {CPD__45__674 } #22 {CPD__45__6761 } #23 {D__45__SERINE } #24 {D__45__CYSTEINE } #25 {_25__45__DIDEHYDRO__45__D__45__GLUCONATE } #26 {__124__Beta__45__D__45__Glucuronides__124__ } #27 {D__45__GALACTURONATE } #28 {CPD0__45__1083 } #29 {__124__NAcMur__45__Peptide__45__NAcGlc__45__Undecaprenols__124__ } #30 {CPD0__45__1181 } #31 {__124__ETR__45__Quinones__124__ } #32 {L__45__RHAMNONATE } #33 {_3__45__MERCAPTO__45__PYRUVATE, __124__Alkanesulfonates__124__ } #34 {_3__45__MERCAPTO__45__PYRUVATE, TAURINE } #35 {CPD0__45__1090 } #36 {D__45__GALACTARATE } #37 {GALACTITOL } #38 {HYDROQUINONE__45__O__45__BETA__45__D__45__GLUCOPYRANOSIDE } #39 {CELLOBIOSE } #40 {__124__Glucosylated__45__Glucose__45__Acceptors__124__ } #41 {MELIBIOSE } #42 {ALLOLACTOSE } #43 {D__45__GALACTONO__45__1__45__4__45__LACTONE } #44 {__124__Glycogens__124__ } #45 {CHITOBIOSE } #46 {NACMUR } #47 {CPD0__45__1080 } #48 {GLUCOSAMINE } #49 {MANNITOL } #50 {BETA__45__D__45__FRUCTOSE } #51 {SORBITOL } #52 {GLC__45__6__45__P } #53 {ALLOSE } #54 {_2__45__O__45__ALPHA__45__MANNOSYL__45__D__45__GLYCERATE } #55 {DIACYLGLYCEROL__45__PYROPHOSPHATE } #56 {CPD__45__536 } #57 {CPD__45__1782 } #58 {ASCORBATE } #59 {N__45__ACETYLNEURAMINATE } #60 {CPD__45__660 } #61 {CPD__45__1142 } #62 {ALLO__45__THR } #63 {L__45__ALLO__45__THREONINE } #64 {TARTRATE } #65 {CPD0__45__889 } #66 {CPD__45__381 } #67 {GLYCOL } #68 {D__45__SEDOHEPTULOSE__45__7__45__P } #69 {D__45__ARABINOSE } #70 {ITP } #71 {GMP__45__LYSINE__45__PHOSPHORAMIDATE } #72 {COBINAMIDE, DIMETHYLBENZIMIDAZOLE } #73 {GDP__45__D__45__GLUCOSE } #74 {CPD__45__582 } #75 {CGMP } #76 {CPD0__45__1699, COB__45__I__45__ALAMIN } #77 {CPD0__45__1699, COBINAMIDE } #78 {CPD__45__397 } #79 {CPD__45__479, CPD__45__12991 } #80 {N__45__6__45__ISOPENTYL__45__ADENOSINE__45__37__45__TRNA } #81 {CPD__45__1302 } #82 {L__45__SELENOCYSTEINE } #83 {UDP__45__MURNAC__45__TETRAPEPTIDE } #84 {_3__45__SULFINOALANINE } #85 {TYR } #86 {GLUTAMATE__45__1__45__SEMIALDEHYDE } #87 {S__45__ALLANTOIN } #88 {D__45__4__45__HYDROXY__45__2__45__KETO__45__GLUTARATE } "
"Pitufina";1010;1164;"__124__NAcMur__45__Peptide__45__NAcGlc__45__Undecaprenols__124__";"a__32__lipid__32__II";689;476;343;58;2513566;87971,6666666667;"#1 {L__45__SELENOCYSTEINE, __124__NAcMur__45__4Peptide__45__NAcGlc__45__Undecaprenols__124__ } #2 {UDP__45__MURNAC__45__TETRAPEPTIDE, __124__NAcMur__45__4Peptide__45__NAcGlc__45__Undecaprenols__124__ } #3 {_3__45__SULFINOALANINE, __124__NAcMur__45__4Peptide__45__NAcGlc__45__Undecaprenols__124__ } #4 {N__45__METHYLTRYPTOPHAN, __124__NAcMur__45__4Peptide__45__NAcGlc__45__Undecaprenols__124__ } #5 {__124__L__45__rhamnose__124__, __124__NAcMur__45__4Peptide__45__NAcGlc__45__Undecaprenols__124__ } #6 {__124__Glycerophosphodiesters__124__, __124__NAcMur__45__4Peptide__45__NAcGlc__45__Undecaprenols__124__ } #7 {L__45__GLYCERALDEHYDE__45__3__45__PHOSPHATE, __124__NAcMur__45__4Peptide__45__NAcGlc__45__Undecaprenols__124__ } #8 {D__45__ARABINOSE, __124__NAcMur__45__4Peptide__45__NAcGlc__45__Undecaprenols__124__ } #9 {L__45__FUCOSE, __124__NAcMur__45__4Peptide__45__NAcGlc__45__Undecaprenols__124__ } #10 {D__45__GALACTONATE, __124__NAcMur__45__4Peptide__45__NAcGlc__45__Undecaprenols__124__ } #11 {_3__45__HYDROXYPHENYL__45__PROPIONATE, __124__NAcMur__45__4Peptide__45__NAcGlc__45__Undecaprenols__124__ } #12 {_3__45__PHENYLPROPIONATE, __124__NAcMur__45__4Peptide__45__NAcGlc__45__Undecaprenols__124__ } #13 {CPD__45__10797, __124__NAcMur__45__4Peptide__45__NAcGlc__45__Undecaprenols__124__ } #14 {CPD__45__674, __124__NAcMur__45__4Peptide__45__NAcGlc__45__Undecaprenols__124__ } #15 {CPD__45__6761, __124__NAcMur__45__4Peptide__45__NAcGlc__45__Undecaprenols__124__ } #16 {D__45__SERINE, __124__NAcMur__45__4Peptide__45__NAcGlc__45__Undecaprenols__124__ } #17 {D__45__CYSTEINE, __124__NAcMur__45__4Peptide__45__NAcGlc__45__Undecaprenols__124__ } #18 {_25__45__DIDEHYDRO__45__D__45__GLUCONATE, __124__NAcMur__45__4Peptide__45__NAcGlc__45__Undecaprenols__124__ } #19 {__124__Beta__45__D__45__Glucuronides__124__, __124__NAcMur__45__4Peptide__45__NAcGlc__45__Undecaprenols__124__ } #20 {D__45__GALACTURONATE, __124__NAcMur__45__4Peptide__45__NAcGlc__45__Undecaprenols__124__ } #21 {CPD0__45__1083, __124__NAcMur__45__4Peptide__45__NAcGlc__45__Undecaprenols__124__ } #22 {__124__ETR__45__Quinones__124__, __124__NAcMur__45__4Peptide__45__NAcGlc__45__Undecaprenols__124__ } #23 {L__45__RHAMNONATE, __124__NAcMur__45__4Peptide__45__NAcGlc__45__Undecaprenols__124__ } #24 {_3__45__MERCAPTO__45__PYRUVATE, __124__Alkanesulfonates__124__, __124__NAcMur__45__4Peptide__45__NAcGlc__45__Undecaprenols__124__ } #25 {_3__45__MERCAPTO__45__PYRUVATE, TAURINE, __124__NAcMur__45__4Peptide__45__NAcGlc__45__Undecaprenols__124__ } #26 {CPD0__45__1090, __124__NAcMur__45__4Peptide__45__NAcGlc__45__Undecaprenols__124__ } #27 {D__45__GALACTARATE, __124__NAcMur__45__4Peptide__45__NAcGlc__45__Undecaprenols__124__ } #28 {_2__45__AMINOMALONATE__45__SEMIALDEHYDE, __124__NAcMur__45__4Peptide__45__NAcGlc__45__Undecaprenols__124__ } #29 {GALACTITOL, __124__NAcMur__45__4Peptide__45__NAcGlc__45__Undecaprenols__124__ } #30 {HYDROQUINONE__45__O__45__BETA__45__D__45__GLUCOPYRANOSIDE, __124__NAcMur__45__4Peptide__45__NAcGlc__45__Undecaprenols__124__ } #31 {GDP__45__D__45__GLUCOSE, __124__NAcMur__45__4Peptide__45__NAcGlc__45__Undecaprenols__124__ } #32 {CELLOBIOSE, __124__NAcMur__45__4Peptide__45__NAcGlc__45__Undecaprenols__124__ } #33 {__124__Glucosylated__45__Glucose__45__Acceptors__124__, __124__NAcMur__45__4Peptide__45__NAcGlc__45__Undecaprenols__124__ } #34 {MELIBIOSE, __124__NAcMur__45__4Peptide__45__NAcGlc__45__Undecaprenols__124__ } #35 {ALLOLACTOSE, __124__NAcMur__45__4Peptide__45__NAcGlc__45__Undecaprenols__124__ } #36 {D__45__GALACTONO__45__1__45__4__45__LACTONE, __124__NAcMur__45__4Peptide__45__NAcGlc__45__Undecaprenols__124__ } #37 {__124__Glycogens__124__, __124__NAcMur__45__4Peptide__45__NAcGlc__45__Undecaprenols__124__ } #38 {CHITOBIOSE, __124__NAcMur__45__4Peptide__45__NAcGlc__45__Undecaprenols__124__ } #39 {NACMUR, __124__NAcMur__45__4Peptide__45__NAcGlc__45__Undecaprenols__124__ } #40 {GLUCOSAMINE, __124__NAcMur__45__4Peptide__45__NAcGlc__45__Undecaprenols__124__ } #41 {MANNITOL, __124__NAcMur__45__4Peptide__45__NAcGlc__45__Undecaprenols__124__ } #42 {BETA__45__D__45__FRUCTOSE, __124__NAcMur__45__4Peptide__45__NAcGlc__45__Undecaprenols__124__ } #43 {SORBITOL, __124__NAcMur__45__4Peptide__45__NAcGlc__45__Undecaprenols__124__ } #44 {GLC__45__6__45__P, __124__NAcMur__45__4Peptide__45__NAcGlc__45__Undecaprenols__124__ } #45 {D__45__SEDOHEPTULOSE__45__7__45__P, __124__NAcMur__45__4Peptide__45__NAcGlc__45__Undecaprenols__124__ } #46 {ALLOSE, __124__NAcMur__45__4Peptide__45__NAcGlc__45__Undecaprenols__124__ } #47 {_2__45__O__45__ALPHA__45__MANNOSYL__45__D__45__GLYCERATE, __124__NAcMur__45__4Peptide__45__NAcGlc__45__Undecaprenols__124__ } #48 {DIACYLGLYCEROL__45__PYROPHOSPHATE, __124__NAcMur__45__4Peptide__45__NAcGlc__45__Undecaprenols__124__ } #49 {CPD__45__536, __124__NAcMur__45__4Peptide__45__NAcGlc__45__Undecaprenols__124__ } #50 {CPD__45__1782, __124__NAcMur__45__4Peptide__45__NAcGlc__45__Undecaprenols__124__ } #51 {ASCORBATE, __124__NAcMur__45__4Peptide__45__NAcGlc__45__Undecaprenols__124__ } #52 {TARTRATE, __124__NAcMur__45__4Peptide__45__NAcGlc__45__Undecaprenols__124__ } #53 {N__45__ACETYLNEURAMINATE, __124__NAcMur__45__4Peptide__45__NAcGlc__45__Undecaprenols__124__ } #54 {CPD__45__660, __124__NAcMur__45__4Peptide__45__NAcGlc__45__Undecaprenols__124__ } #55 {D__45__4__45__HYDROXY__45__2__45__KETO__45__GLUTARATE, __124__NAcMur__45__4Peptide__45__NAcGlc__45__Undecaprenols__124__ } #56 {CPD__45__1142, __124__NAcMur__45__4Peptide__45__NAcGlc__45__Undecaprenols__124__ } #57 {CPD0__45__1080, __124__NAcMur__45__4Peptide__45__NAcGlc__45__Undecaprenols__124__ } #58 {CPD0__45__1181, __124__NAcMur__45__4Peptide__45__NAcGlc__45__Undecaprenols__124__ } "
"Pitufina";1010;1164;"L__45__ASPARTATE";"L__45__aspartate";714;507;344;92;2139014;63783,6666666667;"#1 {TARTRATE } #2 {CPD0__45__889 } #3 {CPD__45__381 } #4 {GLYCOL } #5 {ADENOSINE_DIPHOSPHATE_RIBOSE } #6 {DEOXYNUCLEOTIDESM } #7 {NICOTINAMIDE_RIBOSE } #8 {__124__Pyrimidine__45__Ribonucleosides__124__ } #9 {CPD0__45__1110 } #10 {__124__Purine__45__Ribonucleosides__124__ } #11 {CYTIDINE } #12 {XANTHOSINE } #13 {ITP } #14 {GMP__45__LYSINE__45__PHOSPHORAMIDATE } #15 {CPD__45__582 } #16 {CGMP } #17 {CPD0__45__1699, ALLO__45__THR, COB__45__I__45__ALAMIN } #18 {CPD0__45__1699, ALLO__45__THR, COBINAMIDE } #19 {CPD0__45__1699, ETHANOL__45__AMINE, COB__45__I__45__ALAMIN } #20 {CPD0__45__1699, ETHANOL__45__AMINE, COBINAMIDE } #21 {CPD0__45__1699, L__45__ALLO__45__THREONINE, COB__45__I__45__ALAMIN } #22 {CPD0__45__1699, L__45__ALLO__45__THREONINE, COBINAMIDE } #23 {CPD0__45__1699, ETOH, COB__45__I__45__ALAMIN } #24 {CPD0__45__1699, ETOH, COBINAMIDE } #25 {CPD0__45__1699, _1__45__ETHYLADENINE, COB__45__I__45__ALAMIN } #26 {CPD0__45__1699, _1__45__ETHYLADENINE, COBINAMIDE } #27 {CPD__45__397 } #28 {CPD__45__479, CPD__45__12991 } #29 {N__45__6__45__ISOPENTYL__45__ADENOSINE__45__37__45__TRNA } #30 {CPD__45__1302 } #31 {TYR } #32 {GLUTAMATE__45__1__45__SEMIALDEHYDE } #33 {S__45__ALLANTOIN } #34 {DEOXY__45__D__45__RIBOSE__45__1__45__PHOSPHATE } #35 {N__45__METHYLTRYPTOPHAN } #36 {__124__L__45__rhamnose__124__ } #37 {__124__Glycerophosphodiesters__124__ } #38 {L__45__GLYCERALDEHYDE__45__3__45__PHOSPHATE } #39 {D__45__ARABINOSE } #40 {L__45__FUCOSE } #41 {D__45__GALACTONATE } #42 {_3__45__HYDROXYPHENYL__45__PROPIONATE } #43 {_3__45__PHENYLPROPIONATE } #44 {CPD__45__10797 } #45 {CPD__45__674 } #46 {CPD__45__6761 } #47 {D__45__SERINE } #48 {D__45__CYSTEINE } #49 {_25__45__DIDEHYDRO__45__D__45__GLUCONATE } #50 {__124__Beta__45__D__45__Glucuronides__124__ } #51 {D__45__GALACTURONATE } #52 {CPD0__45__1083 } #53 {L__45__SELENOCYSTEINE } #54 {UDP__45__MURNAC__45__TETRAPEPTIDE } #55 {_3__45__SULFINOALANINE } #56 {__124__NAcMur__45__Peptide__45__NAcGlc__45__Undecaprenols__124__ } #57 {CPD0__45__1181 } #58 {__124__ETR__45__Quinones__124__ } #59 {L__45__RHAMNONATE } #60 {_3__45__MERCAPTO__45__PYRUVATE, __124__Alkanesulfonates__124__ } #61 {_3__45__MERCAPTO__45__PYRUVATE, TAURINE } #62 {CPD0__45__1090 } #63 {D__45__GALACTARATE } #64 {_2__45__AMINOMALONATE__45__SEMIALDEHYDE } #65 {GALACTITOL } #66 {HYDROQUINONE__45__O__45__BETA__45__D__45__GLUCOPYRANOSIDE } #67 {GDP__45__D__45__GLUCOSE } #68 {CELLOBIOSE } #69 {__124__Glucosylated__45__Glucose__45__Acceptors__124__ } #70 {MELIBIOSE } #71 {ALLOLACTOSE } #72 {D__45__GALACTONO__45__1__45__4__45__LACTONE } #73 {__124__Glycogens__124__ } #74 {CHITOBIOSE } #75 {NACMUR } #76 {CPD0__45__1080 } #77 {GLUCOSAMINE } #78 {MANNITOL } #79 {BETA__45__D__45__FRUCTOSE } #80 {SORBITOL } #81 {GLC__45__6__45__P } #82 {D__45__SEDOHEPTULOSE__45__7__45__P } #83 {ALLOSE } #84 {_2__45__O__45__ALPHA__45__MANNOSYL__45__D__45__GLYCERATE } #85 {DIACYLGLYCEROL__45__PYROPHOSPHATE } #86 {CPD__45__536 } #87 {CPD__45__1782 } #88 {ASCORBATE } #89 {N__45__ACETYLNEURAMINATE } #90 {CPD__45__660 } #91 {D__45__4__45__HYDROXY__45__2__45__KETO__45__GLUTARATE } #92 {CPD__45__1142 } "
"Pitufina";1010;1164;"ARG";"L__45__arginine";733;529;344;1;1400684;46783,6666666667;"#1 {CARBAMOYL__45__P } "
"Pitufina";1010;1164;"L__45__ALPHA__45__ALANINE";"L__45__alanine";690;478;344;59;1084843;43524,3333333333;"#1 {L__45__SELENOCYSTEINE } #2 {UDP__45__MURNAC__45__TETRAPEPTIDE } #3 {_3__45__SULFINOALANINE } #4 {N__45__METHYLTRYPTOPHAN } #5 {__124__L__45__rhamnose__124__ } #6 {__124__Glycerophosphodiesters__124__ } #7 {L__45__GLYCERALDEHYDE__45__3__45__PHOSPHATE } #8 {D__45__ARABINOSE } #9 {L__45__FUCOSE } #10 {D__45__GALACTONATE } #11 {_3__45__HYDROXYPHENYL__45__PROPIONATE } #12 {_3__45__PHENYLPROPIONATE } #13 {CPD__45__10797 } #14 {CPD__45__674 } #15 {CPD__45__6761 } #16 {D__45__SERINE } #17 {D__45__CYSTEINE } #18 {_25__45__DIDEHYDRO__45__D__45__GLUCONATE } #19 {__124__Beta__45__D__45__Glucuronides__124__ } #20 {D__45__GALACTURONATE } #21 {CPD0__45__1083 } #22 {__124__NAcMur__45__Peptide__45__NAcGlc__45__Undecaprenols__124__ } #23 {CPD0__45__1181 } #24 {__124__ETR__45__Quinones__124__ } #25 {L__45__RHAMNONATE } #26 {_3__45__MERCAPTO__45__PYRUVATE, __124__Alkanesulfonates__124__ } #27 {_3__45__MERCAPTO__45__PYRUVATE, TAURINE } #28 {CPD0__45__1090 } #29 {D__45__GALACTARATE } #30 {_2__45__AMINOMALONATE__45__SEMIALDEHYDE } #31 {GALACTITOL } #32 {HYDROQUINONE__45__O__45__BETA__45__D__45__GLUCOPYRANOSIDE } #33 {GDP__45__D__45__GLUCOSE } #34 {CELLOBIOSE } #35 {__124__Glucosylated__45__Glucose__45__Acceptors__124__ } #36 {MELIBIOSE } #37 {ALLOLACTOSE } #38 {D__45__GALACTONO__45__1__45__4__45__LACTONE } #39 {__124__Glycogens__124__ } #40 {CHITOBIOSE } #41 {NACMUR } #42 {CPD0__45__1080 } #43 {GLUCOSAMINE } #44 {MANNITOL } #45 {BETA__45__D__45__FRUCTOSE } #46 {SORBITOL } #47 {GLC__45__6__45__P } #48 {D__45__SEDOHEPTULOSE__45__7__45__P } #49 {ALLOSE } #50 {_2__45__O__45__ALPHA__45__MANNOSYL__45__D__45__GLYCERATE } #51 {DIACYLGLYCEROL__45__PYROPHOSPHATE } #52 {CPD__45__536 } #53 {CPD__45__1782 } #54 {ASCORBATE } #55 {TARTRATE } #56 {N__45__ACETYLNEURAMINATE } #57 {CPD__45__660 } #58 {D__45__4__45__HYDROXY__45__2__45__KETO__45__GLUTARATE } #59 {CPD__45__1142 } "
"Pitufina";1010;1164;"GLN";"L__45__glutamine";719;513;344;32;426896;24030;"#1 {CPD0__45__889 } #2 {TARTRATE } #3 {GLYCOL } #4 {D__45__SEDOHEPTULOSE__45__7__45__P } #5 {D__45__ARABINOSE } #6 {_2__45__O__45__ALPHA__45__MANNOSYL__45__D__45__GLYCERATE } #7 {ADENOSINE_DIPHOSPHATE_RIBOSE } #8 {DEOXYNUCLEOTIDESM } #9 {NICOTINAMIDE_RIBOSE } #10 {__124__Pyrimidine__45__Ribonucleosides__124__ } #11 {CPD0__45__1110 } #12 {__124__Purine__45__Ribonucleosides__124__ } #13 {CYTIDINE } #14 {XANTHOSINE } #15 {ITP } #16 {GMP__45__LYSINE__45__PHOSPHORAMIDATE } #17 {GDP__45__D__45__GLUCOSE } #18 {CPD__45__582 } #19 {CGMP } #20 {CPD__45__397 } #21 {CPD__45__479, CPD__45__12991 } #22 {N__45__6__45__ISOPENTYL__45__ADENOSINE__45__37__45__TRNA } #23 {CPD__45__1302 } #24 {L__45__SELENOCYSTEINE } #25 {UDP__45__MURNAC__45__TETRAPEPTIDE } #26 {_3__45__SULFINOALANINE } #27 {_2__45__AMINOMALONATE__45__SEMIALDEHYDE, PROT__45__CYS } #28 {TYR } #29 {GLUTAMATE__45__1__45__SEMIALDEHYDE } #30 {S__45__ALLANTOIN } #31 {D__45__4__45__HYDROXY__45__2__45__KETO__45__GLUTARATE } #32 {CPD__45__381 } "
"Pitufina";1010;1164;"LYS";"L__45__lysine";690;479;344;3;11;9354,6666666667;"#1 {CPD0__45__1032 } #2 {CPD0__45__1080 } #3 {PSICOSELYSINE } "
"Pitufina";1010;1164;"CYTOSINE";"cytosine";349;4;344;2;5;68;"#1 {CYTIDINE } #2 {N3__45__METHYLCYTOSINE } "
"Pitufina (Min)";1010;1164;"MET";"L__45__methionine";737;545;344;63;8840;13616,6666666667;"#1 {CPD__45__479, CPD__45__12991 } #2 {N__45__6__45__ISOPENTYL__45__ADENOSINE__45__37__45__TRNA } #3 {L__45__SELENOCYSTEINE } #4 {UDP__45__MURNAC__45__TETRAPEPTIDE } #5 {_3__45__SULFINOALANINE } #6 {__124__NAcMur__45__Peptide__45__NAcGlc__45__Undecaprenols__124__ } #7 {CPD0__45__1181 } #8 {N__45__METHYLTRYPTOPHAN } #9 {__124__L__45__rhamnose__124__ } #10 {__124__Glycerophosphodiesters__124__ } #11 {DIACYLGLYCEROL__45__PYROPHOSPHATE } #12 {CPD__45__536 } #13 {L__45__GLYCERALDEHYDE__45__3__45__PHOSPHATE } #14 {L__45__FUCOSE } #15 {D__45__GALACTONATE } #16 {_3__45__HYDROXYPHENYL__45__PROPIONATE } #17 {_3__45__PHENYLPROPIONATE } #18 {CPD__45__10797 } #19 {CPD__45__674 } #20 {CPD__45__6761 } #21 {D__45__SERINE } #22 {D__45__CYSTEINE } #23 {_25__45__DIDEHYDRO__45__D__45__GLUCONATE } #24 {__124__Beta__45__D__45__Glucuronides__124__ } #25 {D__45__GALACTURONATE } #26 {CPD0__45__1083 } #27 {__124__ETR__45__Quinones__124__ } #28 {L__45__RHAMNONATE } #29 {CPD0__45__1090 } #30 {D__45__GALACTARATE } #31 {_2__45__AMINOMALONATE__45__SEMIALDEHYDE } #32 {CPD__45__1782 } #33 {TARTRATE } #34 {GLYCOL } #35 {D__45__ARABINOSE } #36 {CPD0__45__1080 } #37 {BETA__45__D__45__FRUCTOSE } #38 {GLC__45__6__45__P } #39 {D__45__SEDOHEPTULOSE__45__7__45__P } #40 {ALLOSE } #41 {ITP } #42 {GMP__45__LYSINE__45__PHOSPHORAMIDATE } #43 {GDP__45__D__45__GLUCOSE } #44 {CPD__45__582 } #45 {CGMP } #46 {CPD0__45__1699, COB__45__I__45__ALAMIN } #47 {CPD0__45__1699, COBINAMIDE } #48 {S__45__ALLANTOIN } #49 {N__45__ACETYLNEURAMINATE } #50 {CPD__45__660 } #51 {D__45__4__45__HYDROXY__45__2__45__KETO__45__GLUTARATE } #52 {_2__45__O__45__ALPHA__45__MANNOSYL__45__D__45__GLYCERATE } #53 {__124__Ribonuc__45__tri__45__P__45__reductases__45__inactive__124__ } #54 {ADENOSINE_DIPHOSPHATE_RIBOSE } #55 {DEOXYNUCLEOTIDESM } #56 {NICOTINAMIDE_RIBOSE } #57 {__124__Pyrimidine__45__Ribonucleosides__124__ } #58 {CPD0__45__1110 } #59 {__124__Purine__45__Ribonucleosides__124__ } #60 {CYTIDINE } #61 {XANTHOSINE } #62 {TYR } #63 {GLUTAMATE__45__1__45__SEMIALDEHYDE } "
"Pitufina (Min)";1010;1164;"GLY";"glycine";706;503;344;88;6057;11549,3333333333;"#1 {CPD__45__644 } #2 {_2__45__AMINOMALONATE__45__SEMIALDEHYDE } #3 {DEOXY__45__D__45__RIBOSE__45__1__45__PHOSPHATE } #4 {__124__NAcMur__45__Peptide__45__NAcGlc__45__Undecaprenols__124__ } #5 {CPD0__45__1181 } #6 {CPD0__45__1147, ADENOSINE_DIPHOSPHATE_RIBOSE } #7 {CPD0__45__1147, DEOXYNUCLEOTIDESM } #8 {CPD0__45__1147, NICOTINAMIDE_RIBOSE } #9 {CPD0__45__1147, __124__Pyrimidine__45__Ribonucleosides__124__ } #10 {CPD0__45__1147, CPD0__45__1110 } #11 {CPD0__45__1147, __124__Purine__45__Ribonucleosides__124__ } #12 {CPD0__45__1147, CYTIDINE } #13 {CPD0__45__1147, XANTHOSINE } #14 {N__45__METHYLTRYPTOPHAN } #15 {__124__L__45__rhamnose__124__ } #16 {__124__Glycerophosphodiesters__124__ } #17 {L__45__GLYCERALDEHYDE__45__3__45__PHOSPHATE } #18 {L__45__FUCOSE } #19 {D__45__GALACTONATE } #20 {_3__45__HYDROXYPHENYL__45__PROPIONATE } #21 {_3__45__PHENYLPROPIONATE } #22 {CPD__45__10797 } #23 {CPD__45__674 } #24 {CPD__45__6761 } #25 {D__45__SERINE } #26 {D__45__CYSTEINE } #27 {_25__45__DIDEHYDRO__45__D__45__GLUCONATE } #28 {__124__Beta__45__D__45__Glucuronides__124__ } #29 {D__45__GALACTURONATE } #30 {CPD0__45__1083 } #31 {__124__ETR__45__Quinones__124__ } #32 {L__45__RHAMNONATE } #33 {_3__45__MERCAPTO__45__PYRUVATE, __124__Alkanesulfonates__124__ } #34 {_3__45__MERCAPTO__45__PYRUVATE, TAURINE } #35 {CPD0__45__1090 } #36 {D__45__GALACTARATE } #37 {GALACTITOL } #38 {HYDROQUINONE__45__O__45__BETA__45__D__45__GLUCOPYRANOSIDE } #39 {CELLOBIOSE } #40 {__124__Glucosylated__45__Glucose__45__Acceptors__124__ } #41 {MELIBIOSE } #42 {ALLOLACTOSE } #43 {D__45__GALACTONO__45__1__45__4__45__LACTONE } #44 {__124__Glycogens__124__ } #45 {CHITOBIOSE } #46 {NACMUR } #47 {CPD0__45__1080 } #48 {GLUCOSAMINE } #49 {MANNITOL } #50 {BETA__45__D__45__FRUCTOSE } #51 {SORBITOL } #52 {GLC__45__6__45__P } #53 {ALLOSE } #54 {_2__45__O__45__ALPHA__45__MANNOSYL__45__D__45__GLYCERATE } #55 {DIACYLGLYCEROL__45__PYROPHOSPHATE } #56 {CPD__45__536 } #57 {CPD__45__1782 } #58 {ASCORBATE } #59 {N__45__ACETYLNEURAMINATE } #60 {CPD__45__660 } #61 {CPD__45__1142 } #62 {ALLO__45__THR } #63 {L__45__ALLO__45__THREONINE } #64 {TARTRATE } #65 {CPD0__45__889 } #66 {CPD__45__381 } #67 {GLYCOL } #68 {D__45__SEDOHEPTULOSE__45__7__45__P } #69 {D__45__ARABINOSE } #70 {ITP } #71 {GMP__45__LYSINE__45__PHOSPHORAMIDATE } #72 {COBINAMIDE, DIMETHYLBENZIMIDAZOLE } #73 {GDP__45__D__45__GLUCOSE } #74 {CPD__45__582 } #75 {CGMP } #76 {CPD0__45__1699, COB__45__I__45__ALAMIN } #77 {CPD0__45__1699, COBINAMIDE } #78 {CPD__45__397 } #79 {CPD__45__479, CPD__45__12991 } #80 {N__45__6__45__ISOPENTYL__45__ADENOSINE__45__37__45__TRNA } #81 {CPD__45__1302 } #82 {L__45__SELENOCYSTEINE } #83 {UDP__45__MURNAC__45__TETRAPEPTIDE } #84 {_3__45__SULFINOALANINE } #85 {TYR } #86 {GLUTAMATE__45__1__45__SEMIALDEHYDE } #87 {S__45__ALLANTOIN } #88 {D__45__4__45__HYDROXY__45__2__45__KETO__45__GLUTARATE } "
"Pitufina (Min)";1010;1164;"__124__NAcMur__45__Peptide__45__NAcGlc__45__Undecaprenols__124__";"a__32__lipid__32__II";689;476;343;58;9997;10372,3333333333;"#1 {L__45__SELENOCYSTEINE, __124__NAcMur__45__4Peptide__45__NAcGlc__45__Undecaprenols__124__ } #2 {UDP__45__MURNAC__45__TETRAPEPTIDE, __124__NAcMur__45__4Peptide__45__NAcGlc__45__Undecaprenols__124__ } #3 {_3__45__SULFINOALANINE, __124__NAcMur__45__4Peptide__45__NAcGlc__45__Undecaprenols__124__ } #4 {N__45__METHYLTRYPTOPHAN, __124__NAcMur__45__4Peptide__45__NAcGlc__45__Undecaprenols__124__ } #5 {__124__L__45__rhamnose__124__, __124__NAcMur__45__4Peptide__45__NAcGlc__45__Undecaprenols__124__ } #6 {__124__Glycerophosphodiesters__124__, __124__NAcMur__45__4Peptide__45__NAcGlc__45__Undecaprenols__124__ } #7 {L__45__GLYCERALDEHYDE__45__3__45__PHOSPHATE, __124__NAcMur__45__4Peptide__45__NAcGlc__45__Undecaprenols__124__ } #8 {D__45__ARABINOSE, __124__NAcMur__45__4Peptide__45__NAcGlc__45__Undecaprenols__124__ } #9 {L__45__FUCOSE, __124__NAcMur__45__4Peptide__45__NAcGlc__45__Undecaprenols__124__ } #10 {D__45__GALACTONATE, __124__NAcMur__45__4Peptide__45__NAcGlc__45__Undecaprenols__124__ } #11 {_3__45__HYDROXYPHENYL__45__PROPIONATE, __124__NAcMur__45__4Peptide__45__NAcGlc__45__Undecaprenols__124__ } #12 {_3__45__PHENYLPROPIONATE, __124__NAcMur__45__4Peptide__45__NAcGlc__45__Undecaprenols__124__ } #13 {CPD__45__10797, __124__NAcMur__45__4Peptide__45__NAcGlc__45__Undecaprenols__124__ } #14 {CPD__45__674, __124__NAcMur__45__4Peptide__45__NAcGlc__45__Undecaprenols__124__ } #15 {CPD__45__6761, __124__NAcMur__45__4Peptide__45__NAcGlc__45__Undecaprenols__124__ } #16 {D__45__SERINE, __124__NAcMur__45__4Peptide__45__NAcGlc__45__Undecaprenols__124__ } #17 {D__45__CYSTEINE, __124__NAcMur__45__4Peptide__45__NAcGlc__45__Undecaprenols__124__ } #18 {_25__45__DIDEHYDRO__45__D__45__GLUCONATE, __124__NAcMur__45__4Peptide__45__NAcGlc__45__Undecaprenols__124__ } #19 {__124__Beta__45__D__45__Glucuronides__124__, __124__NAcMur__45__4Peptide__45__NAcGlc__45__Undecaprenols__124__ } #20 {D__45__GALACTURONATE, __124__NAcMur__45__4Peptide__45__NAcGlc__45__Undecaprenols__124__ } #21 {CPD0__45__1083, __124__NAcMur__45__4Peptide__45__NAcGlc__45__Undecaprenols__124__ } #22 {__124__ETR__45__Quinones__124__, __124__NAcMur__45__4Peptide__45__NAcGlc__45__Undecaprenols__124__ } #23 {L__45__RHAMNONATE, __124__NAcMur__45__4Peptide__45__NAcGlc__45__Undecaprenols__124__ } #24 {_3__45__MERCAPTO__45__PYRUVATE, __124__Alkanesulfonates__124__, __124__NAcMur__45__4Peptide__45__NAcGlc__45__Undecaprenols__124__ } #25 {_3__45__MERCAPTO__45__PYRUVATE, TAURINE, __124__NAcMur__45__4Peptide__45__NAcGlc__45__Undecaprenols__124__ } #26 {CPD0__45__1090, __124__NAcMur__45__4Peptide__45__NAcGlc__45__Undecaprenols__124__ } #27 {D__45__GALACTARATE, __124__NAcMur__45__4Peptide__45__NAcGlc__45__Undecaprenols__124__ } #28 {_2__45__AMINOMALONATE__45__SEMIALDEHYDE, __124__NAcMur__45__4Peptide__45__NAcGlc__45__Undecaprenols__124__ } #29 {GALACTITOL, __124__NAcMur__45__4Peptide__45__NAcGlc__45__Undecaprenols__124__ } #30 {HYDROQUINONE__45__O__45__BETA__45__D__45__GLUCOPYRANOSIDE, __124__NAcMur__45__4Peptide__45__NAcGlc__45__Undecaprenols__124__ } #31 {GDP__45__D__45__GLUCOSE, __124__NAcMur__45__4Peptide__45__NAcGlc__45__Undecaprenols__124__ } #32 {CELLOBIOSE, __124__NAcMur__45__4Peptide__45__NAcGlc__45__Undecaprenols__124__ } #33 {__124__Glucosylated__45__Glucose__45__Acceptors__124__, __124__NAcMur__45__4Peptide__45__NAcGlc__45__Undecaprenols__124__ } #34 {MELIBIOSE, __124__NAcMur__45__4Peptide__45__NAcGlc__45__Undecaprenols__124__ } #35 {ALLOLACTOSE, __124__NAcMur__45__4Peptide__45__NAcGlc__45__Undecaprenols__124__ } #36 {D__45__GALACTONO__45__1__45__4__45__LACTONE, __124__NAcMur__45__4Peptide__45__NAcGlc__45__Undecaprenols__124__ } #37 {__124__Glycogens__124__, __124__NAcMur__45__4Peptide__45__NAcGlc__45__Undecaprenols__124__ } #38 {CHITOBIOSE, __124__NAcMur__45__4Peptide__45__NAcGlc__45__Undecaprenols__124__ } #39 {NACMUR, __124__NAcMur__45__4Peptide__45__NAcGlc__45__Undecaprenols__124__ } #40 {GLUCOSAMINE, __124__NAcMur__45__4Peptide__45__NAcGlc__45__Undecaprenols__124__ } #41 {MANNITOL, __124__NAcMur__45__4Peptide__45__NAcGlc__45__Undecaprenols__124__ } #42 {BETA__45__D__45__FRUCTOSE, __124__NAcMur__45__4Peptide__45__NAcGlc__45__Undecaprenols__124__ } #43 {SORBITOL, __124__NAcMur__45__4Peptide__45__NAcGlc__45__Undecaprenols__124__ } #44 {GLC__45__6__45__P, __124__NAcMur__45__4Peptide__45__NAcGlc__45__Undecaprenols__124__ } #45 {D__45__SEDOHEPTULOSE__45__7__45__P, __124__NAcMur__45__4Peptide__45__NAcGlc__45__Undecaprenols__124__ } #46 {ALLOSE, __124__NAcMur__45__4Peptide__45__NAcGlc__45__Undecaprenols__124__ } #47 {_2__45__O__45__ALPHA__45__MANNOSYL__45__D__45__GLYCERATE, __124__NAcMur__45__4Peptide__45__NAcGlc__45__Undecaprenols__124__ } #48 {DIACYLGLYCEROL__45__PYROPHOSPHATE, __124__NAcMur__45__4Peptide__45__NAcGlc__45__Undecaprenols__124__ } #49 {CPD__45__536, __124__NAcMur__45__4Peptide__45__NAcGlc__45__Undecaprenols__124__ } #50 {CPD__45__1782, __124__NAcMur__45__4Peptide__45__NAcGlc__45__Undecaprenols__124__ } #51 {ASCORBATE, __124__NAcMur__45__4Peptide__45__NAcGlc__45__Undecaprenols__124__ } #52 {TARTRATE, __124__NAcMur__45__4Peptide__45__NAcGlc__45__Undecaprenols__124__ } #53 {N__45__ACETYLNEURAMINATE, __124__NAcMur__45__4Peptide__45__NAcGlc__45__Undecaprenols__124__ } #54 {CPD__45__660, __124__NAcMur__45__4Peptide__45__NAcGlc__45__Undecaprenols__124__ } #55 {D__45__4__45__HYDROXY__45__2__45__KETO__45__GLUTARATE, __124__NAcMur__45__4Peptide__45__NAcGlc__45__Undecaprenols__124__ } #56 {CPD__45__1142, __124__NAcMur__45__4Peptide__45__NAcGlc__45__Undecaprenols__124__ } #57 {CPD0__45__1080, __124__NAcMur__45__4Peptide__45__NAcGlc__45__Undecaprenols__124__ } #58 {CPD0__45__1181, __124__NAcMur__45__4Peptide__45__NAcGlc__45__Undecaprenols__124__ } "
"Pitufina (Min)";1010;1164;"GLN";"L__45__glutamine";719;513;344;32;540;10046,3333333333;"#1 {CPD0__45__889 } #2 {TARTRATE } #3 {GLYCOL } #4 {D__45__SEDOHEPTULOSE__45__7__45__P } #5 {D__45__ARABINOSE } #6 {_2__45__O__45__ALPHA__45__MANNOSYL__45__D__45__GLYCERATE } #7 {ADENOSINE_DIPHOSPHATE_RIBOSE } #8 {DEOXYNUCLEOTIDESM } #9 {NICOTINAMIDE_RIBOSE } #10 {__124__Pyrimidine__45__Ribonucleosides__124__ } #11 {CPD0__45__1110 } #12 {__124__Purine__45__Ribonucleosides__124__ } #13 {CYTIDINE } #14 {XANTHOSINE } #15 {ITP } #16 {GMP__45__LYSINE__45__PHOSPHORAMIDATE } #17 {GDP__45__D__45__GLUCOSE } #18 {CPD__45__582 } #19 {CGMP } #20 {CPD__45__397 } #21 {CPD__45__479, CPD__45__12991 } #22 {N__45__6__45__ISOPENTYL__45__ADENOSINE__45__37__45__TRNA } #23 {CPD__45__1302 } #24 {L__45__SELENOCYSTEINE } #25 {UDP__45__MURNAC__45__TETRAPEPTIDE } #26 {_3__45__SULFINOALANINE } #27 {_2__45__AMINOMALONATE__45__SEMIALDEHYDE, PROT__45__CYS } #28 {TYR } #29 {GLUTAMATE__45__1__45__SEMIALDEHYDE } #30 {S__45__ALLANTOIN } #31 {D__45__4__45__HYDROXY__45__2__45__KETO__45__GLUTARATE } #32 {CPD__45__381 } "
"Pitufina (Min)";1010;1164;"L__45__ALPHA__45__ALANINE";"L__45__alanine";690;478;344;59;4992;9525;"#1 {L__45__SELENOCYSTEINE } #2 {UDP__45__MURNAC__45__TETRAPEPTIDE } #3 {_3__45__SULFINOALANINE } #4 {__124__NAcMur__45__Peptide__45__NAcGlc__45__Undecaprenols__124__ } #5 {CPD0__45__1181 } #6 {N__45__METHYLTRYPTOPHAN } #7 {__124__L__45__rhamnose__124__ } #8 {__124__Glycerophosphodiesters__124__ } #9 {L__45__GLYCERALDEHYDE__45__3__45__PHOSPHATE } #10 {D__45__ARABINOSE } #11 {L__45__FUCOSE } #12 {D__45__GALACTONATE } #13 {_3__45__HYDROXYPHENYL__45__PROPIONATE } #14 {_3__45__PHENYLPROPIONATE } #15 {CPD__45__10797 } #16 {CPD__45__674 } #17 {CPD__45__6761 } #18 {D__45__SERINE } #19 {D__45__CYSTEINE } #20 {_25__45__DIDEHYDRO__45__D__45__GLUCONATE } #21 {__124__Beta__45__D__45__Glucuronides__124__ } #22 {D__45__GALACTURONATE } #23 {CPD0__45__1083 } #24 {__124__ETR__45__Quinones__124__ } #25 {L__45__RHAMNONATE } #26 {_3__45__MERCAPTO__45__PYRUVATE, __124__Alkanesulfonates__124__ } #27 {_3__45__MERCAPTO__45__PYRUVATE, TAURINE } #28 {CPD0__45__1090 } #29 {D__45__GALACTARATE } #30 {_2__45__AMINOMALONATE__45__SEMIALDEHYDE } #31 {GALACTITOL } #32 {HYDROQUINONE__45__O__45__BETA__45__D__45__GLUCOPYRANOSIDE } #33 {GDP__45__D__45__GLUCOSE } #34 {CELLOBIOSE } #35 {__124__Glucosylated__45__Glucose__45__Acceptors__124__ } #36 {MELIBIOSE } #37 {ALLOLACTOSE } #38 {D__45__GALACTONO__45__1__45__4__45__LACTONE } #39 {__124__Glycogens__124__ } #40 {CHITOBIOSE } #41 {NACMUR } #42 {CPD0__45__1080 } #43 {GLUCOSAMINE } #44 {MANNITOL } #45 {BETA__45__D__45__FRUCTOSE } #46 {SORBITOL } #47 {GLC__45__6__45__P } #48 {D__45__SEDOHEPTULOSE__45__7__45__P } #49 {ALLOSE } #50 {_2__45__O__45__ALPHA__45__MANNOSYL__45__D__45__GLYCERATE } #51 {DIACYLGLYCEROL__45__PYROPHOSPHATE } #52 {CPD__45__536 } #53 {CPD__45__1782 } #54 {ASCORBATE } #55 {TARTRATE } #56 {N__45__ACETYLNEURAMINATE } #57 {CPD__45__660 } #58 {D__45__4__45__HYDROXY__45__2__45__KETO__45__GLUTARATE } #59 {CPD__45__1142 } "
"Pitufina (Min)";1010;1164;"LYS";"L__45__lysine";690;479;344;3;11;9216,3333333333;"#1 {CPD0__45__1032 } #2 {CPD0__45__1080 } #3 {PSICOSELYSINE } "
"Pitufina (Min)";1010;1164;"ARG";"L__45__arginine";733;529;344;1;3406;9105,6666666667;"#1 {CARBAMOYL__45__P } "
"Pitufina (Min)";1010;1164;"L__45__ASPARTATE";"L__45__aspartate";714;507;344;92;3317;8944;"#1 {TARTRATE } #2 {CPD0__45__889 } #3 {CPD__45__381 } #4 {GLYCOL } #5 {ADENOSINE_DIPHOSPHATE_RIBOSE } #6 {DEOXYNUCLEOTIDESM } #7 {NICOTINAMIDE_RIBOSE } #8 {__124__Pyrimidine__45__Ribonucleosides__124__ } #9 {CPD0__45__1110 } #10 {__124__Purine__45__Ribonucleosides__124__ } #11 {CYTIDINE } #12 {XANTHOSINE } #13 {ITP } #14 {GMP__45__LYSINE__45__PHOSPHORAMIDATE } #15 {CPD__45__582 } #16 {CGMP } #17 {CPD0__45__1699, ALLO__45__THR, COB__45__I__45__ALAMIN } #18 {CPD0__45__1699, ALLO__45__THR, COBINAMIDE } #19 {CPD0__45__1699, ETHANOL__45__AMINE, COB__45__I__45__ALAMIN } #20 {CPD0__45__1699, ETHANOL__45__AMINE, COBINAMIDE } #21 {CPD0__45__1699, L__45__ALLO__45__THREONINE, COB__45__I__45__ALAMIN } #22 {CPD0__45__1699, L__45__ALLO__45__THREONINE, COBINAMIDE } #23 {CPD0__45__1699, ETOH, COB__45__I__45__ALAMIN } #24 {CPD0__45__1699, ETOH, COBINAMIDE } #25 {CPD0__45__1699, _1__45__ETHYLADENINE, COB__45__I__45__ALAMIN } #26 {CPD0__45__1699, _1__45__ETHYLADENINE, COBINAMIDE } #27 {CPD__45__397 } #28 {CPD__45__479, CPD__45__12991 } #29 {N__45__6__45__ISOPENTYL__45__ADENOSINE__45__37__45__TRNA } #30 {CPD__45__1302 } #31 {TYR } #32 {GLUTAMATE__45__1__45__SEMIALDEHYDE } #33 {S__45__ALLANTOIN } #34 {DEOXY__45__D__45__RIBOSE__45__1__45__PHOSPHATE } #35 {L__45__SELENOCYSTEINE } #36 {UDP__45__MURNAC__45__TETRAPEPTIDE } #37 {_3__45__SULFINOALANINE } #38 {__124__NAcMur__45__Peptide__45__NAcGlc__45__Undecaprenols__124__ } #39 {CPD0__45__1181 } #40 {N__45__METHYLTRYPTOPHAN } #41 {__124__L__45__rhamnose__124__ } #42 {__124__Glycerophosphodiesters__124__ } #43 {L__45__GLYCERALDEHYDE__45__3__45__PHOSPHATE } #44 {D__45__ARABINOSE } #45 {L__45__FUCOSE } #46 {D__45__GALACTONATE } #47 {_3__45__HYDROXYPHENYL__45__PROPIONATE } #48 {_3__45__PHENYLPROPIONATE } #49 {CPD__45__10797 } #50 {CPD__45__674 } #51 {CPD__45__6761 } #52 {D__45__SERINE } #53 {D__45__CYSTEINE } #54 {_25__45__DIDEHYDRO__45__D__45__GLUCONATE } #55 {__124__Beta__45__D__45__Glucuronides__124__ } #56 {D__45__GALACTURONATE } #57 {CPD0__45__1083 } #58 {__124__ETR__45__Quinones__124__ } #59 {L__45__RHAMNONATE } #60 {_3__45__MERCAPTO__45__PYRUVATE, __124__Alkanesulfonates__124__ } #61 {_3__45__MERCAPTO__45__PYRUVATE, TAURINE } #62 {CPD0__45__1090 } #63 {D__45__GALACTARATE } #64 {_2__45__AMINOMALONATE__45__SEMIALDEHYDE } #65 {GALACTITOL } #66 {HYDROQUINONE__45__O__45__BETA__45__D__45__GLUCOPYRANOSIDE } #67 {GDP__45__D__45__GLUCOSE } #68 {CELLOBIOSE } #69 {__124__Glucosylated__45__Glucose__45__Acceptors__124__ } #70 {MELIBIOSE } #71 {ALLOLACTOSE } #72 {D__45__GALACTONO__45__1__45__4__45__LACTONE } #73 {__124__Glycogens__124__ } #74 {CHITOBIOSE } #75 {NACMUR } #76 {CPD0__45__1080 } #77 {GLUCOSAMINE } #78 {MANNITOL } #79 {BETA__45__D__45__FRUCTOSE } #80 {SORBITOL } #81 {GLC__45__6__45__P } #82 {D__45__SEDOHEPTULOSE__45__7__45__P } #83 {ALLOSE } #84 {_2__45__O__45__ALPHA__45__MANNOSYL__45__D__45__GLYCERATE } #85 {DIACYLGLYCEROL__45__PYROPHOSPHATE } #86 {CPD__45__536 } #87 {CPD__45__1782 } #88 {ASCORBATE } #89 {N__45__ACETYLNEURAMINATE } #90 {CPD__45__660 } #91 {D__45__4__45__HYDROXY__45__2__45__KETO__45__GLUTARATE } #92 {CPD__45__1142 } "
"Pitufina (Min)";1010;1164;"CYTOSINE";"cytosine";349;4;344;2;5;42;"#1 {CYTIDINE } #2 {N3__45__METHYLCYTOSINE } "
