"algorithm";"#comp";"#reac";"target_id";"target_name";"#ppn.comp";"#ppn.reac";"#ppn.sources";"#sol";"#rec";"time";"solutions"
"Papa Pitufo";997;1225;"L__45__ALPHA__45__ALANINE";"L-alanine";710;6183;444;19;259;10762;"#1 {CPD__45__476 } #2 {_3__45__SULFINYL__45__PYRUVATE } #3 {HCN, _3__45__MERCAPTO__45__PYRUVATE } #4 {S__45__PRENYL__45__L__45__CYSTEINE } #5 {ADENOSYL__45__HOMO__45__CYS, __124__Acylcholines__124__ } #6 {ADENOSYL__45__HOMO__45__CYS, CPD__45__189 } #7 {ADENOSYL__45__HOMO__45__CYS, _2__45__KETO__45__GLUTARAMATE, __124__D__45__Galactose__124__ } #8 {D__45__ALANINE } #9 {CPD__45__624 } #10 {DEOXY__45__RIBOSE__45__5P } #11 {CPD__45__415 } #12 {UBIQUINONE__45__8, __124__Glycerophosphodiesters__124__ } #13 {UBIQUINONE__45__8, CPD__45__409 } #14 {CPD__45__302 } #15 {CPD__45__273 } #16 {ALLO__45__THR } #17 {AMINO__45__OXOBUT } #18 {CPD__45__426 } #19 {CPD0__45__341 } "
"Papa Pitufo";997;1225;"CPD__45__374";"sepiapterin";698;5652;443;3;462;6851,6666666667;"#1 {ENOL__45__PHENYLPYRUVATE, _6__45__LACTOYL__45__5678__45__TETRAHYDROPTERIN } #2 {ENOL__45__PHENYLPYRUVATE, CPD__45__609 } #3 {CPD__45__8631, ENOL__45__PHENYLPYRUVATE } "
"Papa Pitufo";997;1225;"SER";"L-serine";707;2871;444;23;208;4733;"#1 {ALLO__45__THR } #2 {AMINO__45__OXOBUT } #3 {CPD__45__426 } #4 {ADENOSYL__45__HOMO__45__CYS, __124__Acylcholines__124__ } #5 {ADENOSYL__45__HOMO__45__CYS, CPD__45__189 } #6 {ADENOSYL__45__HOMO__45__CYS, _3__45__ACYLOXYACYL__45__GROUP__45__OF__45__BACTERIAL__45__TOXIN } #7 {ADENOSYL__45__HOMO__45__CYS, CPD__45__409 } #8 {ADENOSYL__45__HOMO__45__CYS, __124__Primary__45__Alcohols__124__ } #9 {ADENOSYL__45__HOMO__45__CYS, _2R__45__HYDROPEROXY__45__FATTY__45__ACIDS } #10 {GLYCERALD } #11 {CPD0__45__1063 } #12 {DEOXY__45__RIBOSE__45__5P } #13 {GLC__45__6__45__P } #14 {CPD__45__535 } #15 {ALPHA__45__GLUCOSE } #16 {__124__Glycogens__124__ } #17 {__124__D__45__Galactose__124__ } #18 {__124__Truncated__45__Limit__45__Dextrins__124__ } #19 {MANNOSE } #20 {_2__45__KETO__45__GLUTARAMATE } #21 {CPD__45__415 } #22 {UBIQUINONE__45__8, __124__Glycerophosphodiesters__124__ } #23 {UBIQUINONE__45__8, CPD__45__409 } "
"Papa Pitufo";997;1225;"GLY";"glycine";707;2691;444;23;205;4473,3333333333;"#1 {ALLO__45__THR } #2 {AMINO__45__OXOBUT } #3 {CPD__45__426 } #4 {ADENOSYL__45__HOMO__45__CYS, __124__Acylcholines__124__ } #5 {ADENOSYL__45__HOMO__45__CYS, CPD__45__189 } #6 {ADENOSYL__45__HOMO__45__CYS, _3__45__ACYLOXYACYL__45__GROUP__45__OF__45__BACTERIAL__45__TOXIN } #7 {CPD__45__409, ADENOSYL__45__HOMO__45__CYS } #8 {ADENOSYL__45__HOMO__45__CYS, __124__Primary__45__Alcohols__124__ } #9 {ADENOSYL__45__HOMO__45__CYS, _2R__45__HYDROPEROXY__45__FATTY__45__ACIDS } #10 {GLYCERALD } #11 {CPD0__45__1063 } #12 {DEOXY__45__RIBOSE__45__5P } #13 {GLC__45__6__45__P } #14 {CPD__45__535 } #15 {ALPHA__45__GLUCOSE } #16 {__124__Glycogens__124__ } #17 {__124__D__45__Galactose__124__ } #18 {__124__Truncated__45__Limit__45__Dextrins__124__ } #19 {MANNOSE } #20 {_2__45__KETO__45__GLUTARAMATE } #21 {CPD__45__415 } #22 {UBIQUINONE__45__8, __124__Glycerophosphodiesters__124__ } #23 {UBIQUINONE__45__8, CPD__45__409 } "
"Papa Pitufo";997;1225;"CYS";"L-cysteine";711;3012;444;24;232;4224;"#1 {S__45__PRENYL__45__L__45__CYSTEINE } #2 {ADENOSYL__45__HOMO__45__CYS, ALLO__45__THR } #3 {ADENOSYL__45__HOMO__45__CYS, AMINO__45__OXOBUT } #4 {CPD__45__426, ADENOSYL__45__HOMO__45__CYS } #5 {ADENOSYL__45__HOMO__45__CYS, __124__Acylcholines__124__ } #6 {ADENOSYL__45__HOMO__45__CYS, CPD__45__189 } #7 {ADENOSYL__45__HOMO__45__CYS, DEOXY__45__RIBOSE__45__5P } #8 {ADENOSYL__45__HOMO__45__CYS, GLC__45__6__45__P } #9 {ADENOSYL__45__HOMO__45__CYS, CPD__45__535 } #10 {ADENOSYL__45__HOMO__45__CYS, GLYCOPROTEIN__45__ETCETERA__45__GLUCOSAMINYL__45__PHOSP } #11 {ADENOSYL__45__HOMO__45__CYS, ALPHA__45__N__45__ACETYLNEURAMINYL__45__26__45__BETA__45__D__45__GALA } #12 {ADENOSYL__45__HOMO__45__CYS, _2__45__KETO__45__GLUTARAMATE } #13 {ADENOSYL__45__HOMO__45__CYS, ALPHA__45__GLUCOSE } #14 {ADENOSYL__45__HOMO__45__CYS, __124__Glycogens__124__ } #15 {ADENOSYL__45__HOMO__45__CYS, __124__D__45__Galactose__124__ } #16 {ADENOSYL__45__HOMO__45__CYS, __124__Truncated__45__Limit__45__Dextrins__124__ } #17 {ADENOSYL__45__HOMO__45__CYS, MANNOSE } #18 {ADENOSYL__45__HOMO__45__CYS, CPD0__45__1063 } #19 {ADENOSYL__45__HOMO__45__CYS, CPD__45__415 } #20 {UBIQUINONE__45__8, ADENOSYL__45__HOMO__45__CYS, __124__Glycerophosphodiesters__124__ } #21 {UBIQUINONE__45__8, ADENOSYL__45__HOMO__45__CYS, CPD__45__409 } #22 {ADENOSYL__45__HOMO__45__CYS, PSEUDOURIDINE__45__5__45__P, XYLITOL } #23 {ADENOSYL__45__HOMO__45__CYS, XYLITOL, CPD0__45__1108 } #24 {_2__45__THIOURIDINE } "
"Papa Pitufo";997;1225;"MET";"L-methionine";702;2136;444;14;175;3531,6666666667;"#1 {N__45__FORMYLMETHIONINE } #2 {ADENOSYL__45__HOMO__45__CYS, __124__Acylcholines__124__ } #3 {ADENOSYL__45__HOMO__45__CYS, CPD__45__189 } #4 {ADENOSYL__45__HOMO__45__CYS, _2__45__KETO__45__GLUTARAMATE, __124__D__45__Galactose__124__ } #5 {ADENOSYL__45__HOMO__45__CYS, _3__45__ACYLOXYACYL__45__GROUP__45__OF__45__BACTERIAL__45__TOXIN } #6 {CPD__45__409, ADENOSYL__45__HOMO__45__CYS } #7 {ADENOSYL__45__HOMO__45__CYS, __124__Primary__45__Alcohols__124__ } #8 {ADENOSYL__45__HOMO__45__CYS, _2R__45__HYDROPEROXY__45__FATTY__45__ACIDS } #9 {ADENOSYL__45__HOMO__45__CYS, D__45__3__45__HYDROXYACYL__45__COA } #10 {ADENOSYL__45__HOMO__45__CYS, CIS__45__DELTA3__45__ENOYL__45__COA } #11 {__124__S__45__2__45__Hydroxyacids1__124__, CPD__45__84 } #12 {__124__D__45__Amino__45__Acids__124__, CPD__45__84 } #13 {ADENOSYL__45__HOMO__45__CYS, _10__45__FORMYL__45__THF } #14 {ADENOSYL__45__HOMO__45__CYS, N__45__METHYL__45__HISTAMINE } "
"Papa Pitufo";997;1225;"DGTP";"dGTP";453;6;444;1;6;51;"#1 {DEOXYGUANOSINE } "
"Papa Pitufo";997;1225;"LEU";"L-leucine";451;4;443;1;4;48,3333333333;"#1 {CPD__45__7100 } "
"Papa Pitufo";997;1225;"L__45__ASPARTATE";"L-aspartate";458;13;444;3;6;48;"#1 {ACETYL__45__ETCETERA__45__L__45__ASPARAGINE } #2 {CPD__45__576 } #3 {_2__45__KETO__45__GLUTARAMATE } "
"Papa Pitufo";997;1225;"HIS";"L-histidine";452;4;444;1;4;45,6666666667;"#1 {N__45__METHYL__45__HISTAMINE } "
"Papa Pitufo (Min)";997;1225;"L__45__ALPHA__45__ALANINE";"L-alanine";710;6142;444;19;242;10786,3333333333;"#1 {CPD__45__476 } #2 {_3__45__SULFINYL__45__PYRUVATE } #3 {HCN, _3__45__MERCAPTO__45__PYRUVATE } #4 {S__45__PRENYL__45__L__45__CYSTEINE } #5 {ADENOSYL__45__HOMO__45__CYS, __124__Acylcholines__124__ } #6 {ADENOSYL__45__HOMO__45__CYS, CPD__45__189 } #7 {ADENOSYL__45__HOMO__45__CYS, _2__45__KETO__45__GLUTARAMATE, __124__D__45__Galactose__124__ } #8 {D__45__ALANINE } #9 {CPD__45__624 } #10 {DEOXY__45__RIBOSE__45__5P } #11 {CPD__45__415 } #12 {UBIQUINONE__45__8, __124__Glycerophosphodiesters__124__ } #13 {UBIQUINONE__45__8, CPD__45__409 } #14 {CPD__45__302 } #15 {CPD__45__273 } #16 {ALLO__45__THR } #17 {AMINO__45__OXOBUT } #18 {CPD__45__426 } #19 {CPD0__45__341 } "
"Papa Pitufo (Min)";997;1225;"SER";"L-serine";707;2960;444;23;208;4094;"#1 {ALLO__45__THR } #2 {AMINO__45__OXOBUT } #3 {CPD__45__426 } #4 {ADENOSYL__45__HOMO__45__CYS, __124__Acylcholines__124__ } #5 {ADENOSYL__45__HOMO__45__CYS, CPD__45__189 } #6 {ADENOSYL__45__HOMO__45__CYS, _3__45__ACYLOXYACYL__45__GROUP__45__OF__45__BACTERIAL__45__TOXIN } #7 {ADENOSYL__45__HOMO__45__CYS, CPD__45__409 } #8 {ADENOSYL__45__HOMO__45__CYS, __124__Primary__45__Alcohols__124__ } #9 {ADENOSYL__45__HOMO__45__CYS, _2R__45__HYDROPEROXY__45__FATTY__45__ACIDS } #10 {GLYCERALD } #11 {CPD0__45__1063 } #12 {DEOXY__45__RIBOSE__45__5P } #13 {GLC__45__6__45__P } #14 {CPD__45__535 } #15 {ALPHA__45__GLUCOSE } #16 {__124__Glycogens__124__ } #17 {__124__D__45__Galactose__124__ } #18 {__124__Truncated__45__Limit__45__Dextrins__124__ } #19 {MANNOSE } #20 {_2__45__KETO__45__GLUTARAMATE } #21 {CPD__45__415 } #22 {UBIQUINONE__45__8, __124__Glycerophosphodiesters__124__ } #23 {UBIQUINONE__45__8, CPD__45__409 } "
"Papa Pitufo (Min)";997;1225;"GLY";"glycine";707;2640;444;23;178;3687;"#1 {ALLO__45__THR } #2 {AMINO__45__OXOBUT } #3 {CPD__45__426 } #4 {GLYCERALD } #5 {CPD0__45__1063 } #6 {DEOXY__45__RIBOSE__45__5P } #7 {GLC__45__6__45__P } #8 {CPD__45__535 } #9 {ALPHA__45__GLUCOSE } #10 {__124__Glycogens__124__ } #11 {__124__D__45__Galactose__124__ } #12 {__124__Truncated__45__Limit__45__Dextrins__124__ } #13 {MANNOSE } #14 {_2__45__KETO__45__GLUTARAMATE } #15 {CPD__45__415 } #16 {UBIQUINONE__45__8, __124__Glycerophosphodiesters__124__ } #17 {UBIQUINONE__45__8, CPD__45__409 } #18 {ADENOSYL__45__HOMO__45__CYS, __124__Acylcholines__124__ } #19 {ADENOSYL__45__HOMO__45__CYS, CPD__45__189 } #20 {ADENOSYL__45__HOMO__45__CYS, _3__45__ACYLOXYACYL__45__GROUP__45__OF__45__BACTERIAL__45__TOXIN } #21 {CPD__45__409, ADENOSYL__45__HOMO__45__CYS } #22 {ADENOSYL__45__HOMO__45__CYS, __124__Primary__45__Alcohols__124__ } #23 {ADENOSYL__45__HOMO__45__CYS, _2R__45__HYDROPEROXY__45__FATTY__45__ACIDS } "
"Papa Pitufo (Min)";997;1225;"CYS";"L-cysteine";711;811;444;24;76;3173,3333333333;"#1 {S__45__PRENYL__45__L__45__CYSTEINE } #2 {_2__45__THIOURIDINE } #3 {ADENOSYL__45__HOMO__45__CYS, ALLO__45__THR } #4 {ADENOSYL__45__HOMO__45__CYS, AMINO__45__OXOBUT } #5 {CPD__45__426, ADENOSYL__45__HOMO__45__CYS } #6 {ADENOSYL__45__HOMO__45__CYS, __124__Acylcholines__124__ } #7 {ADENOSYL__45__HOMO__45__CYS, CPD__45__189 } #8 {ADENOSYL__45__HOMO__45__CYS, DEOXY__45__RIBOSE__45__5P } #9 {ADENOSYL__45__HOMO__45__CYS, GLC__45__6__45__P } #10 {ADENOSYL__45__HOMO__45__CYS, CPD__45__535 } #11 {ADENOSYL__45__HOMO__45__CYS, GLYCOPROTEIN__45__ETCETERA__45__GLUCOSAMINYL__45__PHOSP } #12 {ADENOSYL__45__HOMO__45__CYS, ALPHA__45__N__45__ACETYLNEURAMINYL__45__26__45__BETA__45__D__45__GALA } #13 {ADENOSYL__45__HOMO__45__CYS, _2__45__KETO__45__GLUTARAMATE } #14 {ADENOSYL__45__HOMO__45__CYS, ALPHA__45__GLUCOSE } #15 {ADENOSYL__45__HOMO__45__CYS, __124__Glycogens__124__ } #16 {ADENOSYL__45__HOMO__45__CYS, __124__D__45__Galactose__124__ } #17 {ADENOSYL__45__HOMO__45__CYS, __124__Truncated__45__Limit__45__Dextrins__124__ } #18 {ADENOSYL__45__HOMO__45__CYS, MANNOSE } #19 {ADENOSYL__45__HOMO__45__CYS, CPD0__45__1063 } #20 {ADENOSYL__45__HOMO__45__CYS, CPD__45__415 } #21 {UBIQUINONE__45__8, ADENOSYL__45__HOMO__45__CYS, __124__Glycerophosphodiesters__124__ } #22 {UBIQUINONE__45__8, ADENOSYL__45__HOMO__45__CYS, CPD__45__409 } #23 {ADENOSYL__45__HOMO__45__CYS, PSEUDOURIDINE__45__5__45__P, XYLITOL } #24 {ADENOSYL__45__HOMO__45__CYS, XYLITOL, CPD0__45__1108 } "
"Papa Pitufo (Min)";997;1225;"CPD__45__374";"sepiapterin";698;1245;443;3;156;2884;"#1 {ENOL__45__PHENYLPYRUVATE, _6__45__LACTOYL__45__5678__45__TETRAHYDROPTERIN } #2 {ENOL__45__PHENYLPYRUVATE, CPD__45__609 } #3 {CPD__45__8631, ENOL__45__PHENYLPYRUVATE } "
"Papa Pitufo (Min)";997;1225;"MET";"L-methionine";702;500;444;14;60;2813;"#1 {N__45__FORMYLMETHIONINE } #2 {__124__S__45__2__45__Hydroxyacids1__124__, CPD__45__84 } #3 {__124__D__45__Amino__45__Acids__124__, CPD__45__84 } #4 {ADENOSYL__45__HOMO__45__CYS, _10__45__FORMYL__45__THF } #5 {ADENOSYL__45__HOMO__45__CYS, N__45__METHYL__45__HISTAMINE } #6 {ADENOSYL__45__HOMO__45__CYS, __124__Acylcholines__124__ } #7 {ADENOSYL__45__HOMO__45__CYS, CPD__45__189 } #8 {ADENOSYL__45__HOMO__45__CYS, _2__45__KETO__45__GLUTARAMATE, __124__D__45__Galactose__124__ } #9 {ADENOSYL__45__HOMO__45__CYS, _3__45__ACYLOXYACYL__45__GROUP__45__OF__45__BACTERIAL__45__TOXIN } #10 {CPD__45__409, ADENOSYL__45__HOMO__45__CYS } #11 {ADENOSYL__45__HOMO__45__CYS, __124__Primary__45__Alcohols__124__ } #12 {ADENOSYL__45__HOMO__45__CYS, _2R__45__HYDROPEROXY__45__FATTY__45__ACIDS } #13 {ADENOSYL__45__HOMO__45__CYS, D__45__3__45__HYDROXYACYL__45__COA } #14 {ADENOSYL__45__HOMO__45__CYS, CIS__45__DELTA3__45__ENOYL__45__COA } "
"Papa Pitufo (Min)";997;1225;"LEU";"L-leucine";451;4;443;1;4;46,3333333333;"#1 {CPD__45__7100 } "
"Papa Pitufo (Min)";997;1225;"L__45__ASPARTATE";"L-aspartate";458;13;444;3;6;46;"#1 {ACETYL__45__ETCETERA__45__L__45__ASPARAGINE } #2 {CPD__45__576 } #3 {_2__45__KETO__45__GLUTARAMATE } "
"Papa Pitufo (Min)";997;1225;"DGTP";"dGTP";453;6;444;1;6;44;"#1 {DEOXYGUANOSINE } "
"Papa Pitufo (Min)";997;1225;"HIS";"L-histidine";452;4;444;1;4;43,6666666667;"#1 {N__45__METHYL__45__HISTAMINE } "
"Pitufina";997;1225;"L__45__ALPHA__45__ALANINE";"L-alanine";710;359;444;19;21298;5146,3333333333;"#1 {CPD__45__476 } #2 {S__45__PRENYL__45__L__45__CYSTEINE } #3 {D__45__ALANINE } #4 {CPD__45__302 } #5 {CPD__45__624 } #6 {_3__45__SULFINYL__45__PYRUVATE } #7 {_3__45__MERCAPTO__45__PYRUVATE, HCN } #8 {CPD__45__273 } #9 {CPD0__45__341 } #10 {ALLO__45__THR } #11 {ADENOSYL__45__HOMO__45__CYS, _2__45__KETO__45__GLUTARAMATE, __124__D__45__Galactose__124__ } #12 {ADENOSYL__45__HOMO__45__CYS, CPD__45__189 } #13 {ADENOSYL__45__HOMO__45__CYS, __124__Acylcholines__124__ } #14 {AMINO__45__OXOBUT } #15 {CPD__45__426 } #16 {CPD__45__415 } #17 {UBIQUINONE__45__8, __124__Glycerophosphodiesters__124__ } #18 {UBIQUINONE__45__8, CPD__45__409 } #19 {DEOXY__45__RIBOSE__45__5P } "
"Pitufina";997;1225;"CYS";"L-cysteine";711;359;444;24;12532;3323,3333333333;"#1 {S__45__PRENYL__45__L__45__CYSTEINE } #2 {_2__45__THIOURIDINE } #3 {ADENOSYL__45__HOMO__45__CYS, ALLO__45__THR } #4 {ADENOSYL__45__HOMO__45__CYS, CPD__45__189 } #5 {ADENOSYL__45__HOMO__45__CYS, __124__Acylcholines__124__ } #6 {ADENOSYL__45__HOMO__45__CYS, AMINO__45__OXOBUT } #7 {ADENOSYL__45__HOMO__45__CYS, CPD__45__426 } #8 {ADENOSYL__45__HOMO__45__CYS, GLYCOPROTEIN__45__ETCETERA__45__GLUCOSAMINYL__45__PHOSP } #9 {ADENOSYL__45__HOMO__45__CYS, ALPHA__45__N__45__ACETYLNEURAMINYL__45__26__45__BETA__45__D__45__GALA } #10 {ADENOSYL__45__HOMO__45__CYS, _2__45__KETO__45__GLUTARAMATE } #11 {ADENOSYL__45__HOMO__45__CYS, ALPHA__45__GLUCOSE } #12 {ADENOSYL__45__HOMO__45__CYS, __124__Truncated__45__Limit__45__Dextrins__124__ } #13 {ADENOSYL__45__HOMO__45__CYS, __124__Glycogens__124__ } #14 {ADENOSYL__45__HOMO__45__CYS, __124__D__45__Galactose__124__ } #15 {ADENOSYL__45__HOMO__45__CYS, GLC__45__6__45__P } #16 {ADENOSYL__45__HOMO__45__CYS, CPD__45__535 } #17 {ADENOSYL__45__HOMO__45__CYS, MANNOSE } #18 {ADENOSYL__45__HOMO__45__CYS, CPD0__45__1063 } #19 {ADENOSYL__45__HOMO__45__CYS, CPD__45__415 } #20 {ADENOSYL__45__HOMO__45__CYS, UBIQUINONE__45__8, __124__Glycerophosphodiesters__124__ } #21 {ADENOSYL__45__HOMO__45__CYS, UBIQUINONE__45__8, CPD__45__409 } #22 {ADENOSYL__45__HOMO__45__CYS, XYLITOL, CPD0__45__1108 } #23 {ADENOSYL__45__HOMO__45__CYS, XYLITOL, PSEUDOURIDINE__45__5__45__P } #24 {ADENOSYL__45__HOMO__45__CYS, DEOXY__45__RIBOSE__45__5P } "
"Pitufina";997;1225;"SER";"L-serine";707;350;444;23;16782;3242;"#1 {ALLO__45__THR } #2 {ADENOSYL__45__HOMO__45__CYS, CPD__45__189 } #3 {ADENOSYL__45__HOMO__45__CYS, CPD__45__409 } #4 {ADENOSYL__45__HOMO__45__CYS, __124__Primary__45__Alcohols__124__ } #5 {ADENOSYL__45__HOMO__45__CYS, _2R__45__HYDROPEROXY__45__FATTY__45__ACIDS } #6 {ADENOSYL__45__HOMO__45__CYS, _3__45__ACYLOXYACYL__45__GROUP__45__OF__45__BACTERIAL__45__TOXIN } #7 {ADENOSYL__45__HOMO__45__CYS, __124__Acylcholines__124__ } #8 {AMINO__45__OXOBUT } #9 {CPD__45__426 } #10 {GLYCERALD } #11 {_2__45__KETO__45__GLUTARAMATE } #12 {ALPHA__45__GLUCOSE } #13 {__124__Truncated__45__Limit__45__Dextrins__124__ } #14 {__124__Glycogens__124__ } #15 {__124__D__45__Galactose__124__ } #16 {GLC__45__6__45__P } #17 {CPD__45__535 } #18 {MANNOSE } #19 {CPD0__45__1063 } #20 {CPD__45__415 } #21 {UBIQUINONE__45__8, __124__Glycerophosphodiesters__124__ } #22 {UBIQUINONE__45__8, CPD__45__409 } #23 {DEOXY__45__RIBOSE__45__5P } "
"Pitufina";997;1225;"CPD__45__374";"sepiapterin";698;329;443;3;16843;3187,3333333333;"#1 {_6__45__LACTOYL__45__5678__45__TETRAHYDROPTERIN, ENOL__45__PHENYLPYRUVATE } #2 {CPD__45__609, ENOL__45__PHENYLPYRUVATE } #3 {CPD__45__8631, ENOL__45__PHENYLPYRUVATE } "
"Pitufina";997;1225;"GLY";"glycine";707;350;444;23;11672;3064;"#1 {GLYCERALD } #2 {_2__45__KETO__45__GLUTARAMATE } #3 {ALPHA__45__GLUCOSE } #4 {__124__Truncated__45__Limit__45__Dextrins__124__ } #5 {__124__Glycogens__124__ } #6 {__124__D__45__Galactose__124__ } #7 {GLC__45__6__45__P } #8 {CPD__45__535 } #9 {MANNOSE } #10 {CPD0__45__1063 } #11 {CPD__45__415 } #12 {UBIQUINONE__45__8, __124__Glycerophosphodiesters__124__ } #13 {UBIQUINONE__45__8, CPD__45__409 } #14 {DEOXY__45__RIBOSE__45__5P } #15 {ALLO__45__THR } #16 {ADENOSYL__45__HOMO__45__CYS, CPD__45__189 } #17 {ADENOSYL__45__HOMO__45__CYS, CPD__45__409 } #18 {ADENOSYL__45__HOMO__45__CYS, __124__Primary__45__Alcohols__124__ } #19 {ADENOSYL__45__HOMO__45__CYS, _2R__45__HYDROPEROXY__45__FATTY__45__ACIDS } #20 {ADENOSYL__45__HOMO__45__CYS, _3__45__ACYLOXYACYL__45__GROUP__45__OF__45__BACTERIAL__45__TOXIN } #21 {ADENOSYL__45__HOMO__45__CYS, __124__Acylcholines__124__ } #22 {AMINO__45__OXOBUT } #23 {CPD__45__426 } "
"Pitufina";997;1225;"MET";"L-methionine";702;342;444;14;1010;2839,3333333333;"#1 {CPD__45__84, __124__S__45__2__45__Hydroxyacids1__124__ } #2 {CPD__45__84, __124__D__45__Amino__45__Acids__124__ } #3 {ADENOSYL__45__HOMO__45__CYS, _10__45__FORMYL__45__THF } #4 {ADENOSYL__45__HOMO__45__CYS, N__45__METHYL__45__HISTAMINE } #5 {ADENOSYL__45__HOMO__45__CYS, _2__45__KETO__45__GLUTARAMATE, __124__D__45__Galactose__124__ } #6 {ADENOSYL__45__HOMO__45__CYS, CPD__45__189 } #7 {ADENOSYL__45__HOMO__45__CYS, CPD__45__409 } #8 {ADENOSYL__45__HOMO__45__CYS, __124__Primary__45__Alcohols__124__ } #9 {ADENOSYL__45__HOMO__45__CYS, _2R__45__HYDROPEROXY__45__FATTY__45__ACIDS } #10 {ADENOSYL__45__HOMO__45__CYS, CIS__45__DELTA3__45__ENOYL__45__COA } #11 {ADENOSYL__45__HOMO__45__CYS, D__45__3__45__HYDROXYACYL__45__COA } #12 {ADENOSYL__45__HOMO__45__CYS, _3__45__ACYLOXYACYL__45__GROUP__45__OF__45__BACTERIAL__45__TOXIN } #13 {ADENOSYL__45__HOMO__45__CYS, __124__Acylcholines__124__ } #14 {N__45__FORMYLMETHIONINE } "
"Pitufina";997;1225;"L__45__ASPARTATE";"L-aspartate";458;9;444;3;9;165,6666666667;"#1 {ACETYL__45__ETCETERA__45__L__45__ASPARAGINE } #2 {CPD__45__576 } #3 {_2__45__KETO__45__GLUTARAMATE } "
"Pitufina";997;1225;"DGTP";"dGTP";453;6;444;1;8;66,3333333333;"#1 {DEOXYGUANOSINE } "
"Pitufina";997;1225;"HIS";"L-histidine";452;4;444;1;5;59,3333333333;"#1 {N__45__METHYL__45__HISTAMINE } "
"Pitufina";997;1225;"LEU";"L-leucine";451;4;443;1;5;46,6666666667;"#1 {CPD__45__7100 } "
"Pitufina (Min)";997;1225;"L__45__ALPHA__45__ALANINE";"L-alanine";710;359;444;19;890;3336,3333333333;"#1 {CPD__45__476 } #2 {S__45__PRENYL__45__L__45__CYSTEINE } #3 {D__45__ALANINE } #4 {CPD__45__302 } #5 {CPD__45__624 } #6 {_3__45__SULFINYL__45__PYRUVATE } #7 {_3__45__MERCAPTO__45__PYRUVATE, HCN } #8 {ALLO__45__THR } #9 {ADENOSYL__45__HOMO__45__CYS, _2__45__KETO__45__GLUTARAMATE, __124__D__45__Galactose__124__ } #10 {ADENOSYL__45__HOMO__45__CYS, CPD__45__189 } #11 {ADENOSYL__45__HOMO__45__CYS, __124__Acylcholines__124__ } #12 {AMINO__45__OXOBUT } #13 {CPD__45__426 } #14 {CPD__45__415 } #15 {UBIQUINONE__45__8, __124__Glycerophosphodiesters__124__ } #16 {UBIQUINONE__45__8, CPD__45__409 } #17 {DEOXY__45__RIBOSE__45__5P } #18 {CPD__45__273 } #19 {CPD0__45__341 } "
"Pitufina (Min)";997;1225;"CYS";"L-cysteine";711;359;444;24;662;3321,6666666667;"#1 {S__45__PRENYL__45__L__45__CYSTEINE } #2 {_2__45__THIOURIDINE } #3 {ADENOSYL__45__HOMO__45__CYS, ALLO__45__THR } #4 {ADENOSYL__45__HOMO__45__CYS, CPD__45__189 } #5 {ADENOSYL__45__HOMO__45__CYS, __124__Acylcholines__124__ } #6 {ADENOSYL__45__HOMO__45__CYS, AMINO__45__OXOBUT } #7 {ADENOSYL__45__HOMO__45__CYS, CPD__45__426 } #8 {ADENOSYL__45__HOMO__45__CYS, GLYCOPROTEIN__45__ETCETERA__45__GLUCOSAMINYL__45__PHOSP } #9 {ADENOSYL__45__HOMO__45__CYS, ALPHA__45__N__45__ACETYLNEURAMINYL__45__26__45__BETA__45__D__45__GALA } #10 {ADENOSYL__45__HOMO__45__CYS, _2__45__KETO__45__GLUTARAMATE } #11 {ADENOSYL__45__HOMO__45__CYS, ALPHA__45__GLUCOSE } #12 {ADENOSYL__45__HOMO__45__CYS, __124__Truncated__45__Limit__45__Dextrins__124__ } #13 {ADENOSYL__45__HOMO__45__CYS, __124__Glycogens__124__ } #14 {ADENOSYL__45__HOMO__45__CYS, __124__D__45__Galactose__124__ } #15 {ADENOSYL__45__HOMO__45__CYS, GLC__45__6__45__P } #16 {ADENOSYL__45__HOMO__45__CYS, CPD__45__535 } #17 {ADENOSYL__45__HOMO__45__CYS, MANNOSE } #18 {ADENOSYL__45__HOMO__45__CYS, CPD0__45__1063 } #19 {ADENOSYL__45__HOMO__45__CYS, CPD__45__415 } #20 {ADENOSYL__45__HOMO__45__CYS, UBIQUINONE__45__8, __124__Glycerophosphodiesters__124__ } #21 {ADENOSYL__45__HOMO__45__CYS, UBIQUINONE__45__8, CPD__45__409 } #22 {ADENOSYL__45__HOMO__45__CYS, XYLITOL, CPD0__45__1108 } #23 {ADENOSYL__45__HOMO__45__CYS, XYLITOL, PSEUDOURIDINE__45__5__45__P } #24 {ADENOSYL__45__HOMO__45__CYS, DEOXY__45__RIBOSE__45__5P } "
"Pitufina (Min)";997;1225;"GLY";"glycine";707;350;444;23;165;3015,6666666667;"#1 {GLYCERALD } #2 {_2__45__KETO__45__GLUTARAMATE } #3 {ALPHA__45__GLUCOSE } #4 {__124__Truncated__45__Limit__45__Dextrins__124__ } #5 {__124__Glycogens__124__ } #6 {__124__D__45__Galactose__124__ } #7 {GLC__45__6__45__P } #8 {CPD__45__535 } #9 {MANNOSE } #10 {CPD0__45__1063 } #11 {CPD__45__415 } #12 {UBIQUINONE__45__8, __124__Glycerophosphodiesters__124__ } #13 {UBIQUINONE__45__8, CPD__45__409 } #14 {DEOXY__45__RIBOSE__45__5P } #15 {ALLO__45__THR } #16 {ADENOSYL__45__HOMO__45__CYS, CPD__45__189 } #17 {ADENOSYL__45__HOMO__45__CYS, CPD__45__409 } #18 {ADENOSYL__45__HOMO__45__CYS, __124__Primary__45__Alcohols__124__ } #19 {ADENOSYL__45__HOMO__45__CYS, _2R__45__HYDROPEROXY__45__FATTY__45__ACIDS } #20 {ADENOSYL__45__HOMO__45__CYS, _3__45__ACYLOXYACYL__45__GROUP__45__OF__45__BACTERIAL__45__TOXIN } #21 {ADENOSYL__45__HOMO__45__CYS, __124__Acylcholines__124__ } #22 {AMINO__45__OXOBUT } #23 {CPD__45__426 } "
"Pitufina (Min)";997;1225;"CPD__45__374";"sepiapterin";698;329;443;3;26;2958,6666666667;"#1 {_6__45__LACTOYL__45__5678__45__TETRAHYDROPTERIN, ENOL__45__PHENYLPYRUVATE } #2 {CPD__45__609, ENOL__45__PHENYLPYRUVATE } #3 {CPD__45__8631, ENOL__45__PHENYLPYRUVATE } "
"Pitufina (Min)";997;1225;"SER";"L-serine";707;350;444;23;165;2922,3333333333;"#1 {ALLO__45__THR } #2 {ADENOSYL__45__HOMO__45__CYS, CPD__45__189 } #3 {ADENOSYL__45__HOMO__45__CYS, CPD__45__409 } #4 {ADENOSYL__45__HOMO__45__CYS, __124__Primary__45__Alcohols__124__ } #5 {ADENOSYL__45__HOMO__45__CYS, _2R__45__HYDROPEROXY__45__FATTY__45__ACIDS } #6 {ADENOSYL__45__HOMO__45__CYS, _3__45__ACYLOXYACYL__45__GROUP__45__OF__45__BACTERIAL__45__TOXIN } #7 {ADENOSYL__45__HOMO__45__CYS, __124__Acylcholines__124__ } #8 {AMINO__45__OXOBUT } #9 {CPD__45__426 } #10 {GLYCERALD } #11 {_2__45__KETO__45__GLUTARAMATE } #12 {ALPHA__45__GLUCOSE } #13 {__124__Truncated__45__Limit__45__Dextrins__124__ } #14 {__124__Glycogens__124__ } #15 {__124__D__45__Galactose__124__ } #16 {GLC__45__6__45__P } #17 {CPD__45__535 } #18 {MANNOSE } #19 {CPD0__45__1063 } #20 {CPD__45__415 } #21 {UBIQUINONE__45__8, __124__Glycerophosphodiesters__124__ } #22 {UBIQUINONE__45__8, CPD__45__409 } #23 {DEOXY__45__RIBOSE__45__5P } "
"Pitufina (Min)";997;1225;"MET";"L-methionine";702;342;444;14;61;2787;"#1 {CPD__45__84, __124__S__45__2__45__Hydroxyacids1__124__ } #2 {CPD__45__84, __124__D__45__Amino__45__Acids__124__ } #3 {ADENOSYL__45__HOMO__45__CYS, _10__45__FORMYL__45__THF } #4 {ADENOSYL__45__HOMO__45__CYS, N__45__METHYL__45__HISTAMINE } #5 {ADENOSYL__45__HOMO__45__CYS, _2__45__KETO__45__GLUTARAMATE, __124__D__45__Galactose__124__ } #6 {ADENOSYL__45__HOMO__45__CYS, CPD__45__189 } #7 {ADENOSYL__45__HOMO__45__CYS, CPD__45__409 } #8 {ADENOSYL__45__HOMO__45__CYS, __124__Primary__45__Alcohols__124__ } #9 {ADENOSYL__45__HOMO__45__CYS, _2R__45__HYDROPEROXY__45__FATTY__45__ACIDS } #10 {ADENOSYL__45__HOMO__45__CYS, CIS__45__DELTA3__45__ENOYL__45__COA } #11 {ADENOSYL__45__HOMO__45__CYS, D__45__3__45__HYDROXYACYL__45__COA } #12 {ADENOSYL__45__HOMO__45__CYS, _3__45__ACYLOXYACYL__45__GROUP__45__OF__45__BACTERIAL__45__TOXIN } #13 {ADENOSYL__45__HOMO__45__CYS, __124__Acylcholines__124__ } #14 {N__45__FORMYLMETHIONINE } "
"Pitufina (Min)";997;1225;"L__45__ASPARTATE";"L-aspartate";458;9;444;3;9;47,3333333333;"#1 {ACETYL__45__ETCETERA__45__L__45__ASPARAGINE } #2 {CPD__45__576 } #3 {_2__45__KETO__45__GLUTARAMATE } "
"Pitufina (Min)";997;1225;"LEU";"L-leucine";451;4;443;1;5;46,3333333333;"#1 {CPD__45__7100 } "
"Pitufina (Min)";997;1225;"HIS";"L-histidine";452;4;444;1;5;43;"#1 {N__45__METHYL__45__HISTAMINE } "
"Pitufina (Min)";997;1225;"DGTP";"dGTP";453;6;444;1;8;42,3333333333;"#1 {DEOXYGUANOSINE } "
